1ª Matrícula/1º Semestre/Introdução aos Sistemas Digitais/Testes/Quartus Prime Lite/GateDemo/simulation/qsim/GateDemo.msim.vcd
$comment
	File created using the following command:
		vcd file GateDemo.msim.vcd -direction
$end
$date
	Tue Nov 22 19:21:46 2022
$end
$version
	ModelSim Version 2020.1
$end
$timescale
	1ps
$end

$scope module GateDemo_vlg_vec_tst $end
$var reg 1 ! inPort0 $end
$var reg 1 " inPort1 $end
$var wire 1 # outPort $end

$scope module i1 $end
$var wire 1 $ gnd $end
$var wire 1 % vcc $end
$var wire 1 & unknown $end
$var tri1 1 ' devclrn $end
$var tri1 1 ( devpor $end
$var tri1 1 ) devoe $end
$var wire 1 * outPort~output_o $end
$var wire 1 + inPort0~input_o $end
$var wire 1 , inPort1~input_o $end
$var wire 1 - AND2_1~combout $end
$upscope $end
$upscope $end
$enddefinitions $end
#0
$dumpvars
0!
0"
0#
0$
1%
x&
1'
1(
1)
0*
0+
0,
0-
$end
#60000
1!
1+
#160000
0!
0+
#200000
1"
1,
#300000
0"
0,
#380000
1!
1+
#440000
1"
1,
1-
1*
1#
#560000
0"
0,
0-
0*
0#
#600000
0!
0+
#680000
1"
1,
#720000
1!
1+
1-
1*
1#
#800000
0!
0+
0-
0*
0#
#860000
0"
0,
#900000
1!
1+
#920000
1"
1,
1-
1*
1#
#960000
0!
0+
0-
0*
0#
#980000
0"
0,
