1ª Matrícula/1º Semestre/Introdução aos Sistemas Digitais/Testes/Quartus Prime Lite/DecoderDemo/simulation/qsim/DecoderDemo.msim.vcd
$comment
	File created using the following command:
		vcd file DecoderDemo.msim.vcd -direction
$end
$date
	Tue Dec 06 23:46:31 2022
$end
$version
	ModelSim Version 2020.1
$end
$timescale
	1ps
$end

$scope module DecoderDemo_vlg_vec_tst $end
$var reg 1 ! E0_L $end
$var reg 1 " E1 $end
$var reg 1 # X0 $end
$var reg 1 $ X1 $end
$var wire 1 % Y0 $end
$var wire 1 & Y1 $end
$var wire 1 ' Y2 $end
$var wire 1 ( Y3 $end

$scope module i1 $end
$var wire 1 ) gnd $end
$var wire 1 * vcc $end
$var wire 1 + unknown $end
$var tri1 1 , devclrn $end
$var tri1 1 - devpor $end
$var tri1 1 . devoe $end
$var wire 1 / Y0~output_o $end
$var wire 1 0 Y1~output_o $end
$var wire 1 1 Y2~output_o $end
$var wire 1 2 Y3~output_o $end
$var wire 1 3 E1~input_o $end
$var wire 1 4 X0~input_o $end
$var wire 1 5 X1~input_o $end
$var wire 1 6 E0_L~input_o $end
$var wire 1 7 Dec2_4|AND4_1~combout $end
$var wire 1 8 Dec2_4|AND4_2~combout $end
$var wire 1 9 Dec2_4|AND4_3~combout $end
$var wire 1 : Dec2_4|AND4_4~combout $end
$upscope $end
$upscope $end
$enddefinitions $end
#0
$dumpvars
0!
1"
0#
1$
0%
1&
0'
0(
0)
1*
x+
1,
1-
1.
0/
10
01
02
13
04
15
06
07
18
09
0:
$end
#5000
0$
05
08
17
1/
00
0&
1%
#10000
1#
14
19
07
0/
11
1'
0%
#20000
0#
04
09
17
1/
01
0'
1%
#30000
1#
14
19
07
0/
11
1'
0%
#35000
1$
0#
15
04
09
18
10
01
0'
1&
#40000
1#
14
1:
08
00
12
1(
0&
#45000
0#
04
0:
18
10
02
0(
1&
#60000
0$
1#
05
14
19
08
00
11
1'
0&
#70000
0#
04
09
17
1/
01
0'
1%
#75000
1$
1#
15
14
1:
07
0/
12
1(
0%
#80000
0#
04
0:
18
10
02
0(
1&
#90000
1#
14
1:
08
00
12
1(
0&
#95000
0$
0#
05
04
0:
17
1/
02
0(
1%
#100000
1#
14
19
07
0/
11
1'
0%
#105000
1$
15
1:
09
01
12
1(
0'
#110000
0#
04
0:
18
10
02
0(
1&
#115000
0$
05
08
17
1/
00
0&
1%
#130000
1#
1$
14
15
1:
07
0/
12
1(
0%
#140000
0#
04
0:
18
10
02
0(
1&
#145000
0$
05
08
17
1/
00
0&
1%
#150000
1$
15
18
07
0/
10
1&
0%
#155000
1#
14
1:
08
00
12
1(
0&
#160000
0$
0#
05
04
0:
17
1/
02
0(
1%
#165000
1$
1#
15
14
1:
07
0/
12
1(
0%
#170000
0$
05
0:
19
11
02
0(
1'
#175000
0#
04
09
17
1/
01
0'
1%
#180000
1$
15
18
07
0/
10
1&
0%
#185000
0$
05
08
17
1/
00
0&
1%
#195000
1$
15
18
07
0/
10
1&
0%
#200000
1#
0$
14
05
19
08
00
11
1'
0&
#205000
1$
15
1:
09
01
12
1(
0'
#210000
0#
04
0:
18
10
02
0(
1&
#215000
1#
14
1:
08
00
12
1(
0&
#220000
0#
04
0:
18
10
02
0(
1&
#235000
1#
14
1:
08
00
12
1(
0&
#245000
0$
05
0:
19
11
02
0(
1'
#250000
0#
1$
04
15
09
18
10
01
0'
1&
#265000
1#
0$
14
05
19
08
00
11
1'
0&
#270000
0#
04
09
17
1/
01
0'
1%
#275000
1$
1#
15
14
1:
07
0/
12
1(
0%
#285000
0$
0#
05
04
0:
17
1/
02
0(
1%
#290000
1$
1#
15
14
1:
07
0/
12
1(
0%
#295000
0$
05
0:
19
11
02
0(
1'
#300000
1$
15
1:
09
01
12
1(
0'
#305000
0#
0$
04
05
0:
17
1/
02
0(
1%
#315000
1$
15
18
07
0/
10
1&
0%
#320000
0$
05
08
17
1/
00
0&
1%
#325000
1#
1$
14
15
1:
07
0/
12
1(
0%
#330000
0$
05
0:
19
11
02
0(
1'
#335000
1$
15
1:
09
01
12
1(
0'
#340000
0#
04
0:
18
10
02
0(
1&
#345000
1#
14
1:
08
00
12
1(
0&
#355000
0$
05
0:
19
11
02
0(
1'
#360000
1$
15
1:
09
01
12
1(
0'
#365000
0#
0$
04
05
0:
17
1/
02
0(
1%
#380000
1#
1$
14
15
1:
07
0/
12
1(
0%
#385000
0$
05
0:
19
11
02
0(
1'
#390000
1$
15
1:
09
01
12
1(
0'
#410000
0#
0$
04
05
0:
17
1/
02
0(
1%
#415000
1#
1$
14
15
1:
07
0/
12
1(
0%
#420000
0$
05
0:
19
11
02
0(
1'
#425000
1$
15
1:
09
01
12
1(
0'
#430000
0#
04
0:
18
10
02
0(
1&
#435000
0$
1#
05
14
19
08
00
11
1'
0&
#440000
1$
0#
15
04
09
18
10
01
0'
1&
#445000
0$
1#
05
14
19
08
00
11
1'
0&
#450000
1$
15
1:
09
01
12
1(
0'
#460000
0$
05
0:
19
11
02
0(
1'
#470000
0#
1$
04
15
09
18
10
01
0'
1&
#475000
1#
0$
14
05
19
08
00
11
1'
0&
#490000
0#
1$
04
15
09
18
10
01
0'
1&
#500000
0$
05
08
17
1/
00
0&
1%
#510000
1#
1$
14
15
1:
07
0/
12
1(
0%
#520000
0#
0$
04
05
0:
17
1/
02
0(
1%
#525000
1#
1$
14
15
1:
07
0/
12
1(
0%
#530000
0$
05
0:
19
11
02
0(
1'
#535000
1$
15
1:
09
01
12
1(
0'
#540000
0#
0$
04
05
0:
17
1/
02
0(
1%
#545000
1#
14
19
07
0/
11
1'
0%
#550000
1$
15
1:
09
01
12
1(
0'
#560000
0#
0$
04
05
0:
17
1/
02
0(
1%
#565000
1$
15
18
07
0/
10
1&
0%
#575000
1#
0$
14
05
19
08
00
11
1'
0&
#580000
0#
1$
04
15
09
18
10
01
0'
1&
#585000
1#
14
1:
08
00
12
1(
0&
#590000
0$
0#
05
04
0:
17
1/
02
0(
1%
#600000
1$
15
18
07
0/
10
1&
0%
#605000
1#
0$
14
05
19
08
00
11
1'
0&
#610000
0#
04
09
17
1/
01
0'
1%
#620000
1$
15
18
07
0/
10
1&
0%
#630000
1#
0$
14
05
19
08
00
11
1'
0&
#635000
1$
15
1:
09
01
12
1(
0'
#645000
0#
04
0:
18
10
02
0(
1&
#650000
1#
14
1:
08
00
12
1(
0&
#655000
0#
04
0:
18
10
02
0(
1&
#660000
0$
05
08
17
1/
00
0&
1%
#665000
1$
15
18
07
0/
10
1&
0%
#680000
1#
0$
14
05
19
08
00
11
1'
0&
#685000
0#
1$
04
15
09
18
10
01
0'
1&
#695000
1#
14
1:
08
00
12
1(
0&
#700000
0$
0#
05
04
0:
17
1/
02
0(
1%
#705000
1#
14
19
07
0/
11
1'
0%
#710000
1$
0#
15
04
09
18
10
01
0'
1&
#720000
0$
1#
05
14
19
08
00
11
1'
0&
#725000
1$
15
1:
09
01
12
1(
0'
#730000
0#
04
0:
18
10
02
0(
1&
#735000
0$
1#
05
14
19
08
00
11
1'
0&
#745000
1$
0#
15
04
09
18
10
01
0'
1&
#750000
1#
14
1:
08
00
12
1(
0&
#765000
0$
0#
05
04
0:
17
1/
02
0(
1%
#770000
1#
14
19
07
0/
11
1'
0%
#775000
0#
04
09
17
1/
01
0'
1%
#780000
1$
1#
15
14
1:
07
0/
12
1(
0%
#785000
0$
0#
05
04
0:
17
1/
02
0(
1%
#790000
1#
14
19
07
0/
11
1'
0%
#795000
1$
15
1:
09
01
12
1(
0'
#805000
0#
0$
04
05
0:
17
1/
02
0(
1%
#810000
1#
1$
14
15
1:
07
0/
12
1(
0%
#815000
0#
04
0:
18
10
02
0(
1&
#825000
0$
1#
05
14
19
08
00
11
1'
0&
#840000
1$
0#
15
04
09
18
10
01
0'
1&
#845000
0$
05
08
17
1/
00
0&
1%
#850000
1#
1$
14
15
1:
07
0/
12
1(
0%
#855000
0#
04
0:
18
10
02
0(
1&
#860000
1#
14
1:
08
00
12
1(
0&
#865000
0#
04
0:
18
10
02
0(
1&
#870000
0$
1#
05
14
19
08
00
11
1'
0&
#875000
1$
15
1:
09
01
12
1(
0'
#880000
0#
04
0:
18
10
02
0(
1&
#885000
0$
05
08
17
1/
00
0&
1%
#890000
1#
1$
14
15
1:
07
0/
12
1(
0%
#895000
0#
04
0:
18
10
02
0(
1&
#900000
0$
05
08
17
1/
00
0&
1%
#905000
1$
15
18
07
0/
10
1&
0%
#915000
0$
05
08
17
1/
00
0&
1%
#925000
1#
1$
14
15
1:
07
0/
12
1(
0%
#930000
0$
05
0:
19
11
02
0(
1'
#935000
0#
04
09
17
1/
01
0'
1%
#940000
1$
15
18
07
0/
10
1&
0%
#945000
1#
14
1:
08
00
12
1(
0&
#950000
0#
04
0:
18
10
02
0(
1&
#955000
0$
1#
05
14
19
08
00
11
1'
0&
#970000
1$
15
1:
09
01
12
1(
0'
#975000
0$
05
0:
19
11
02
0(
1'
#980000
0#
1$
04
15
09
18
10
01
0'
1&
#985000
1#
0$
14
05
19
08
00
11
1'
0&
