1ª Matrícula/1º Semestre/Introdução aos Sistemas Digitais/Testes/113261/ISDSim2/simulation/qsim/MEF.msim.vcd
$comment
	File created using the following command:
		vcd file MEF.msim.vcd -direction
$end
$date
	Tue Jan 03 12:28:19 2023
$end
$version
	ModelSim Version 2020.1
$end
$timescale
	1ps
$end

$scope module MEF_vlg_vec_tst $end
$var reg 1 ! CLK $end
$var reg 1 " RESET $end
$var reg 1 # X $end
$var wire 1 $ Q [1] $end
$var wire 1 % Q [0] $end

$scope module i1 $end
$var wire 1 & gnd $end
$var wire 1 ' vcc $end
$var wire 1 ( unknown $end
$var tri1 1 ) devclrn $end
$var tri1 1 * devpor $end
$var tri1 1 + devoe $end
$var wire 1 , Q[1]~output_o $end
$var wire 1 - Q[0]~output_o $end
$var wire 1 . CLK~input_o $end
$var wire 1 / RESET~input_o $end
$var wire 1 0 inst19~0_combout $end
$var wire 1 1 X~input_o $end
$var wire 1 2 inst18~1_combout $end
$var wire 1 3 inst9~q $end
$var wire 1 4 inst18~0_combout $end
$var wire 1 5 inst~q $end
$upscope $end
$upscope $end
$enddefinitions $end
#0
$dumpvars
0!
1"
0#
0%
0$
0&
1'
x(
1)
1*
1+
0,
0-
0.
1/
10
01
02
03
04
05
$end
#10000
0"
0/
12
00
#15000
1"
1/
02
10
#25000
0"
0/
12
00
#35000
1"
1/
02
10
#45000
0"
0/
12
00
#50000
1!
1#
11
1.
#60000
1"
1/
10
#65000
0"
0/
00
#75000
1"
1/
10
#80000
0"
0/
00
#85000
1"
1/
10
#90000
0"
0/
00
#100000
0!
0#
1"
01
1/
0.
02
10
#105000
0"
0/
12
00
#110000
1"
1/
02
10
#130000
0"
0/
12
00
#135000
1"
1/
02
10
#140000
0"
0/
12
00
#150000
1!
1#
1"
11
1/
1.
10
#155000
0"
0/
00
#160000
1"
1/
10
#165000
0"
0/
00
#175000
1"
1/
10
#180000
0"
0/
00
#190000
1"
1/
10
#195000
0"
0/
00
#200000
0!
0#
1"
01
1/
0.
02
10
#215000
0"
0/
12
00
#220000
1"
1/
02
10
#230000
0"
0/
12
00
#240000
1"
1/
02
10
#250000
1!
1#
0"
11
0/
1.
12
00
#255000
1"
1/
10
#260000
0"
0/
00
#265000
1"
1/
10
#275000
0"
0/
00
#285000
1"
1/
10
#295000
0"
0/
00
#300000
0!
0#
1"
01
1/
0.
02
10
#310000
0"
0/
12
00
#315000
1"
1/
02
10
#320000
0"
0/
12
00
#325000
1"
1/
02
10
#345000
0"
0/
12
00
#350000
1!
1#
11
1.
#360000
1"
1/
10
#365000
0"
0/
00
#375000
1"
1/
10
#400000
0!
0#
0"
01
0/
0.
00
#405000
1"
1/
02
10
#410000
0"
0/
12
00
#425000
1"
1/
02
10
#430000
0"
0/
12
00
#440000
1"
1/
02
10
#445000
0"
0/
12
00
#450000
1!
1#
1"
11
1/
1.
10
#465000
0"
0/
00
#470000
1"
1/
10
#475000
0"
0/
00
#480000
1"
1/
10
#485000
0"
0/
00
#500000
0!
0#
1"
01
1/
0.
02
10
#510000
0"
0/
12
00
#545000
1"
1/
02
10
#550000
1!
1#
11
1.
12
#560000
0"
0/
00
#565000
1"
1/
10
#570000
0"
0/
00
#575000
1"
1/
10
#580000
0"
0/
00
#590000
1"
1/
10
#600000
0!
0#
01
0.
02
#615000
0"
0/
12
00
#625000
1"
1/
02
10
#635000
0"
0/
12
00
#645000
1"
1/
02
10
#650000
1!
1#
11
1.
12
#655000
0"
0/
00
#660000
1"
1/
10
#665000
0"
0/
00
#675000
1"
1/
10
#680000
0"
0/
00
#685000
1"
1/
10
#690000
0"
0/
00
#700000
0!
0#
01
0.
#705000
1"
1/
02
10
#715000
0"
0/
12
00
#725000
1"
1/
02
10
#730000
0"
0/
12
00
#735000
1"
1/
02
10
#740000
0"
0/
12
00
#750000
1!
1#
11
1.
#755000
1"
1/
10
#760000
0"
0/
00
#765000
1"
1/
10
#775000
0"
0/
00
#800000
0!
0#
01
0.
#820000
1"
1/
02
10
#835000
0"
0/
12
00
#850000
1!
1#
11
1.
#860000
1"
1/
10
#875000
0"
0/
00
#880000
1"
1/
10
#890000
0"
0/
00
#895000
1"
1/
10
#900000
0!
0#
01
0.
02
#920000
0"
0/
12
00
#930000
1"
1/
02
10
#950000
1!
1#
0"
11
0/
1.
12
00
#955000
1"
1/
10
#960000
0"
0/
00
#965000
1"
1/
10
#980000
0"
0/
00
#995000
1"
1/
10
