1ª Matrícula/1º Semestre/Introdução aos Sistemas Digitais/Testes/114292/Project/simulation/qsim/MEF.msim.vcd
$comment
	File created using the following command:
		vcd file MEF.msim.vcd -direction
$end
$date
	Thu Jan 05 17:49:15 2023
$end
$version
	ModelSim Version 2020.1
$end
$timescale
	1ps
$end

$scope module MEF_vlg_vec_tst $end
$var reg 1 ! CK $end
$var reg 1 " RESET_H $end
$var reg 1 # X $end
$var wire 1 $ Q [2] $end
$var wire 1 % Q [1] $end
$var wire 1 & Q [0] $end
$var wire 1 ' Y $end

$scope module i1 $end
$var wire 1 ( gnd $end
$var wire 1 ) vcc $end
$var wire 1 * unknown $end
$var tri1 1 + devclrn $end
$var tri1 1 , devpor $end
$var tri1 1 - devoe $end
$var wire 1 . Y~output_o $end
$var wire 1 / Q[2]~output_o $end
$var wire 1 0 Q[1]~output_o $end
$var wire 1 1 Q[0]~output_o $end
$var wire 1 2 CK~input_o $end
$var wire 1 3 X~input_o $end
$var wire 1 4 inst14~combout $end
$var wire 1 5 RESET_H~input_o $end
$var wire 1 6 inst1~q $end
$var wire 1 7 inst9~0_combout $end
$var wire 1 8 inst~q $end
$var wire 1 9 inst15~0_combout $end
$var wire 1 : inst6[2]~0_combout $end
$upscope $end
$upscope $end
$enddefinitions $end
#0
$dumpvars
0!
1"
1#
1&
1%
1$
0'
0(
1)
x*
1+
1,
1-
0.
1/
10
11
02
13
14
15
06
07
08
09
1:
$end
#10000
0"
05
#15000
1!
0#
1"
03
15
12
0:
04
0/
00
01
0&
0%
0$
16
#20000
0"
05
06
#25000
1#
1"
13
15
1:
14
1/
10
11
1&
1%
1$
#30000
0!
0#
03
02
0:
04
0/
00
01
0&
0%
0$
#35000
0"
05
#40000
1!
12
#45000
1#
1"
0!
13
15
02
1:
14
1/
10
11
1&
1%
1$
#50000
0#
03
0:
04
0/
00
01
0&
0%
0$
#55000
1!
12
#60000
0"
05
#65000
1#
1"
13
15
1:
14
1/
10
11
1&
1%
1$
#70000
0!
0#
0"
03
05
02
0:
04
0/
00
01
0&
0%
0$
#80000
1!
1"
15
12
#90000
1#
0!
0"
13
05
02
1:
14
1/
10
11
1&
1%
1$
#95000
1!
1"
15
12
16
0:
17
04
0/
00
01
0&
0%
0$
#100000
0#
03
07
#105000
0!
02
#110000
0"
05
06
#120000
1#
13
1:
14
1/
10
11
1&
1%
1$
#125000
1!
1"
15
12
16
0:
17
04
0/
00
01
0&
0%
0$
#135000
0#
0!
03
02
07
#140000
0"
1#
1!
05
13
12
17
06
1:
07
14
1/
10
11
1&
1%
1$
#145000
0!
02
#150000
1"
1!
15
12
16
0:
17
04
0/
00
01
0&
0%
0$
#155000
0"
05
06
1:
07
14
1/
10
11
1&
1%
1$
#165000
0!
02
#175000
1"
15
#180000
1!
12
16
0:
17
04
0/
00
01
0&
0%
0$
#185000
0!
02
#190000
0#
0"
03
05
07
06
#195000
1!
1"
15
12
#200000
1#
13
1:
14
1/
10
11
1&
1%
1$
#205000
0!
0#
03
02
0:
04
0/
00
01
0&
0%
0$
#210000
0"
1!
1#
05
13
12
1:
14
1/
10
11
1&
1%
1$
#215000
1"
0!
15
02
#220000
0#
03
0:
04
0/
00
01
0&
0%
0$
#225000
1#
13
1:
14
1/
10
11
1&
1%
1$
#230000
0"
05
#235000
0#
03
0:
04
0/
00
01
0&
0%
0$
#240000
1!
1"
1#
15
13
12
1:
14
1/
10
11
1&
1%
1$
#245000
0!
0"
05
02
#250000
0#
1!
1"
03
15
12
0:
04
0/
00
01
0&
0%
0$
16
#255000
1#
13
17
#260000
0"
0#
05
03
07
06
#265000
1"
15
#270000
1#
13
1:
14
1/
10
11
1&
1%
1$
#275000
0!
0"
0#
05
03
02
0:
04
0/
00
01
0&
0%
0$
#280000
1!
1"
1#
15
13
12
1:
14
1/
10
11
1&
1%
1$
#285000
0!
0#
03
02
0:
04
0/
00
01
0&
0%
0$
#295000
1#
13
1:
14
1/
10
11
1&
1%
1$
#300000
1!
12
16
0:
17
04
0/
00
01
0&
0%
0$
#305000
0#
03
07
#310000
0"
1#
05
13
17
06
1:
07
14
1/
10
11
1&
1%
1$
#315000
0#
03
0:
04
0/
00
01
0&
0%
0$
#320000
0!
1"
15
02
#325000
1#
1!
0"
13
05
12
1:
14
1/
10
11
1&
1%
1$
#330000
0#
0!
03
02
0:
04
0/
00
01
0&
0%
0$
#335000
1"
15
#340000
1!
12
#345000
1#
0!
13
02
1:
14
1/
10
11
1&
1%
1$
#350000
0"
0#
1!
05
03
12
0:
04
0/
00
01
0&
0%
0$
#355000
1"
15
#360000
1#
0"
13
05
1:
14
1/
10
11
1&
1%
1$
#365000
0!
02
#370000
0#
1"
03
15
0:
04
0/
00
01
0&
0%
0$
#375000
1#
0"
13
05
1:
14
1/
10
11
1&
1%
1$
#380000
1!
0#
1"
03
15
12
0:
04
0/
00
01
0&
0%
0$
16
#390000
0!
0"
05
02
06
#395000
1#
13
1:
14
1/
10
11
1&
1%
1$
#400000
1!
0#
03
12
0:
04
0/
00
01
0&
0%
0$
#405000
1"
15
#410000
1#
0"
13
05
1:
14
1/
10
11
1&
1%
1$
#415000
0!
1"
15
02
#420000
0#
1!
0"
03
05
12
0:
04
0/
00
01
0&
0%
0$
#425000
0!
1"
15
02
#430000
1#
1!
0"
13
05
12
1:
14
1/
10
11
1&
1%
1$
#435000
1"
15
#440000
0"
05
#445000
0#
0!
03
02
0:
04
0/
00
01
0&
0%
0$
#450000
1#
1!
13
12
1:
14
1/
10
11
1&
1%
1$
#455000
1"
0!
15
02
#460000
0"
1!
05
12
#465000
0#
1"
03
15
0:
04
0/
00
01
0&
0%
0$
#470000
1#
13
1:
14
1/
10
11
1&
1%
1$
#480000
0!
02
#485000
0"
0#
1!
05
03
12
0:
04
0/
00
01
0&
0%
0$
#490000
1"
1#
15
13
1:
14
1/
10
11
1&
1%
1$
#495000
0!
0"
0#
05
03
02
0:
04
0/
00
01
0&
0%
0$
#500000
1!
1#
13
12
1:
14
1/
10
11
1&
1%
1$
#505000
0#
03
0:
04
0/
00
01
0&
0%
0$
#510000
1"
0!
1#
15
13
02
1:
14
1/
10
11
1&
1%
1$
#515000
1!
0#
03
12
0:
04
0/
00
01
0&
0%
0$
16
#520000
0!
02
#530000
0"
1#
1!
05
13
12
17
06
1:
07
14
1/
10
11
1&
1%
1$
#535000
0#
0!
03
02
0:
04
0/
00
01
0&
0%
0$
#540000
1"
15
#545000
1#
0"
13
05
1:
14
1/
10
11
1&
1%
1$
#550000
1!
0#
1"
03
15
12
0:
04
0/
00
01
0&
0%
0$
16
#555000
1#
13
17
#560000
0"
0#
05
03
07
06
#570000
0!
1#
13
02
1:
14
1/
10
11
1&
1%
1$
#575000
1!
0#
03
12
0:
04
0/
00
01
0&
0%
0$
#580000
0!
1#
13
02
1:
14
1/
10
11
1&
1%
1$
#585000
1"
1!
0#
15
03
12
0:
04
0/
00
01
0&
0%
0$
16
#590000
0"
0!
05
02
06
#595000
1#
1"
13
15
1:
14
1/
10
11
1&
1%
1$
#610000
1!
0#
03
12
0:
04
0/
00
01
0&
0%
0$
16
#615000
0"
05
06
#620000
0!
1#
1"
13
15
02
1:
14
1/
10
11
1&
1%
1$
#625000
0#
0"
03
05
0:
04
0/
00
01
0&
0%
0$
#630000
1!
1"
15
12
#635000
0!
0"
05
02
#645000
1#
1!
1"
13
15
12
1:
14
1/
10
11
1&
1%
1$
#650000
0#
0"
03
05
0:
04
0/
00
01
0&
0%
0$
#655000
0!
1#
13
02
1:
14
1/
10
11
1&
1%
1$
#665000
1!
12
#670000
1"
0#
15
03
0:
04
0/
00
01
0&
0%
0$
#675000
0!
0"
05
02
#680000
1#
13
1:
14
1/
10
11
1&
1%
1$
#685000
0#
03
0:
04
0/
00
01
0&
0%
0$
#690000
1!
12
#695000
1"
15
#700000
1#
0!
13
02
1:
14
1/
10
11
1&
1%
1$
#705000
0#
1!
03
12
0:
04
0/
00
01
0&
0%
0$
16
#710000
0"
1#
05
13
17
06
1:
07
14
1/
10
11
1&
1%
1$
#715000
1"
0#
15
03
0:
04
0/
00
01
0&
0%
0$
#720000
0!
0"
1#
05
13
02
1:
14
1/
10
11
1&
1%
1$
#725000
1"
15
#730000
0"
05
#735000
1!
0#
1"
03
15
12
0:
04
0/
00
01
0&
0%
0$
16
#740000
1#
0"
13
05
17
06
1:
07
14
1/
10
11
1&
1%
1$
#745000
0!
0#
03
02
0:
04
0/
00
01
0&
0%
0$
#750000
1"
1#
15
13
1:
14
1/
10
11
1&
1%
1$
#755000
1!
0#
03
12
0:
04
0/
00
01
0&
0%
0$
16
#760000
0"
05
06
#765000
0!
1#
13
02
1:
14
1/
10
11
1&
1%
1$
#770000
1"
15
#775000
0#
03
0:
04
0/
00
01
0&
0%
0$
#785000
0"
1#
05
13
1:
14
1/
10
11
1&
1%
1$
#790000
1!
12
#795000
0#
03
0:
04
0/
00
01
0&
0%
0$
#800000
1"
1#
15
13
1:
14
1/
10
11
1&
1%
1$
#805000
0!
0#
03
02
0:
04
0/
00
01
0&
0%
0$
#810000
0"
1#
05
13
1:
14
1/
10
11
1&
1%
1$
#815000
1!
1"
0#
15
03
12
0:
04
0/
00
01
0&
0%
0$
16
#820000
0"
1#
05
13
17
06
1:
07
14
1/
10
11
1&
1%
1$
#825000
0!
02
#830000
1"
15
#835000
1!
12
16
0:
17
04
0/
00
01
0&
0%
0$
#840000
0"
05
06
1:
07
14
1/
10
11
1&
1%
1$
#845000
0#
0!
1"
03
15
02
0:
04
0/
00
01
0&
0%
0$
#850000
1#
0"
13
05
1:
14
1/
10
11
1&
1%
1$
#855000
1"
15
#860000
0"
05
#865000
0#
1"
03
15
0:
04
0/
00
01
0&
0%
0$
#870000
1!
1#
0"
13
05
12
1:
14
1/
10
11
1&
1%
1$
#875000
0#
03
0:
04
0/
00
01
0&
0%
0$
#880000
1#
13
1:
14
1/
10
11
1&
1%
1$
#885000
1"
15
#890000
0!
0"
05
02
#900000
0#
1"
03
15
0:
04
0/
00
01
0&
0%
0$
#905000
1!
1#
0"
13
05
12
1:
14
1/
10
11
1&
1%
1$
#910000
0!
0#
1"
03
15
02
0:
04
0/
00
01
0&
0%
0$
#915000
0"
05
#920000
1!
1#
1"
13
15
12
1:
14
1/
10
11
1&
1%
1$
#925000
0!
0#
03
02
0:
04
0/
00
01
0&
0%
0$
#930000
1#
13
1:
14
1/
10
11
1&
1%
1$
#935000
0"
0#
05
03
0:
04
0/
00
01
0&
0%
0$
#940000
1!
12
#950000
1"
0!
15
02
#955000
1#
1!
13
12
1:
14
1/
10
11
1&
1%
1$
#960000
0"
05
#965000
0#
0!
03
02
0:
04
0/
00
01
0&
0%
0$
#970000
1!
12
#975000
1"
15
#980000
1#
0"
13
05
1:
14
1/
10
11
1&
1%
1$
#985000
0!
02
#990000
0#
1"
03
15
0:
04
0/
00
01
0&
0%
0$
