1ª Matrícula/1º Semestre/Introdução aos Sistemas Digitais/Testes/MEF/simulation/qsim/MEF.msim.vcd
$comment
	File created using the following command:
		vcd file MEF.msim.vcd -direction
$end
$date
	Sun Jan 01 22:33:27 2023
$end
$version
	ModelSim Version 2020.1
$end
$timescale
	1ps
$end

$scope module bloco_mef_vhd_vec_tst $end
$var wire 1 ! clock $end
$var wire 1 " reset_low $end
$var wire 1 # x $end
$var wire 1 $ Y [1] $end
$var wire 1 % Y [0] $end

$scope module i1 $end
$var wire 1 & gnd $end
$var wire 1 ' vcc $end
$var wire 1 ( unknown $end
$var wire 1 ) devoe $end
$var wire 1 * devclrn $end
$var wire 1 + devpor $end
$var wire 1 , ww_devoe $end
$var wire 1 - ww_devclrn $end
$var wire 1 . ww_devpor $end
$var wire 1 / ww_Y [1] $end
$var wire 1 0 ww_Y [0] $end
$var wire 1 1 ww_x $end
$var wire 1 2 ww_reset_low $end
$var wire 1 3 ww_clock $end
$var wire 1 4 \clock~inputclkctrl_INCLK_bus\ [3] $end
$var wire 1 5 \clock~inputclkctrl_INCLK_bus\ [2] $end
$var wire 1 6 \clock~inputclkctrl_INCLK_bus\ [1] $end
$var wire 1 7 \clock~inputclkctrl_INCLK_bus\ [0] $end
$var wire 1 8 \Y[1]~output_o\ $end
$var wire 1 9 \Y[0]~output_o\ $end
$var wire 1 : \clock~input_o\ $end
$var wire 1 ; \clock~inputclkctrl_outclk\ $end
$var wire 1 < \x~input_o\ $end
$var wire 1 = \reset_low~input_o\ $end
$var wire 1 > \inst|inst4~combout\ $end
$var wire 1 ? \inst|inst7~q\ $end
$var wire 1 @ \inst|inst3~combout\ $end
$var wire 1 A \inst|inst6~q\ $end
$upscope $end
$upscope $end
$enddefinitions $end
#0
$dumpvars
0!
1"
0#
0&
1'
x(
1)
1*
1+
1,
1-
1.
01
12
03
08
09
0:
0;
0<
1=
0>
0?
1@
0A
0/
00
14
15
16
07
0$
0%
$end
#5000
1!
1#
13
11
1<
1:
17
1>
0@
1;
1?
1@
19
10
1%
#10000
0!
03
0:
07
0;
#15000
1!
0#
13
01
0<
1:
17
0>
0@
1;
0?
1@
09
00
0%
#25000
1#
11
1<
1>
0@
#35000
0#
01
0<
0>
1@
#40000
1#
0"
11
02
0=
1<
0@
#55000
0!
03
0:
07
0;
#60000
1!
13
1:
17
1;
#70000
0!
03
0:
07
0;
#80000
0#
01
0<
#85000
1#
11
1<
#90000
0#
01
0<
#95000
1!
13
1:
17
1;
#100000
0!
1#
1"
03
11
12
1=
1<
0:
07
1>
0;
#110000
1!
13
1:
17
1;
1?
1@
19
10
1%
#115000
0!
03
0:
07
0;
#120000
1!
13
1:
17
1;
1A
0>
18
1/
1$
#125000
0#
01
0<
1>
0@
#130000
1#
0!
11
03
0:
1<
07
0>
1@
0;
#135000
1!
13
1:
17
1;
0?
0@
09
00
0%
#140000
0!
0#
03
01
0<
0:
07
1>
1@
0;
#145000
1!
13
1:
17
1;
1?
0@
19
10
1%
#150000
1#
11
1<
0>
1@
#155000
0!
03
0:
07
0;
#165000
1!
0#
13
01
0<
1:
17
1>
0@
1;
0A
0>
08
0/
0$
#175000
0!
1#
03
11
1<
0:
07
1>
1@
0;
#190000
0#
01
0<
0>
0@
#195000
1!
13
1:
17
1;
0?
1@
09
00
0%
#205000
0!
03
0:
07
0;
#210000
1!
13
1:
17
1;
1A
1>
18
1/
1$
#215000
0!
1#
03
11
1<
0:
07
0>
0@
0;
#220000
1!
0#
13
01
0<
1:
17
1>
1@
1;
1?
0@
19
10
1%
#225000
0!
03
0:
07
0;
#230000
1#
11
1<
0>
1@
#235000
0#
1!
01
13
1:
0<
17
1>
0@
1;
0A
0>
08
0/
0$
#240000
0!
03
0:
07
0;
#245000
1!
1#
13
11
1<
1:
17
1>
1@
1;
1A
0>
18
1/
1$
#250000
0!
0#
03
01
0<
0:
07
1>
0@
0;
#255000
1#
11
1<
0>
1@
#260000
0#
1!
01
13
1:
0<
17
1>
0@
1;
0A
0>
08
0/
0$
#270000
0!
03
0:
07
0;
#275000
1#
11
1<
1>
1@
#285000
0#
1!
01
13
1:
0<
17
0>
0@
1;
0?
1@
09
00
0%
#290000
0!
03
0:
07
0;
#295000
1!
1#
13
11
1<
1:
17
1>
0@
1;
1?
1@
19
10
1%
#300000
0!
0#
03
01
0<
0:
07
0>
0@
0;
#310000
1!
13
1:
17
1;
0?
1@
09
00
0%
#315000
0!
03
0:
07
0;
#325000
1!
13
1:
17
1;
1A
1>
18
1/
1$
#330000
0!
1#
03
11
1<
0:
07
0>
0@
0;
#350000
0#
01
0<
1>
1@
#370000
1#
1!
11
13
1:
1<
17
0>
0@
1;
0A
1>
08
0/
0$
#375000
0#
01
0<
0>
1@
#390000
0!
03
0:
07
0;
#400000
1#
11
1<
1>
0@
#410000
1!
13
1:
17
1;
1?
1@
19
10
1%
#415000
0!
03
0:
07
0;
#420000
1!
0#
13
01
0<
1:
17
0>
0@
1;
0?
1@
09
00
0%
#425000
1#
11
1<
1>
0@
#430000
0#
01
0<
0>
1@
#435000
1#
11
1<
1>
0@
#445000
0!
03
0:
07
0;
#450000
0#
01
0<
0>
1@
#455000
1!
13
1:
17
1;
1A
1>
18
1/
1$
#460000
0!
1#
03
11
1<
0:
07
0>
0@
0;
#480000
1!
13
1:
17
1;
0A
1>
08
0/
0$
#490000
0!
03
0:
07
0;
#495000
0#
01
0<
0>
1@
#500000
1#
11
1<
1>
0@
#505000
1!
13
1:
17
1;
1?
1@
19
10
1%
#515000
0#
01
0<
0>
0@
#520000
1#
0!
11
03
0:
1<
07
1>
1@
0;
#525000
0#
01
0<
0>
0@
#530000
1#
11
1<
1>
1@
#535000
0#
1!
01
13
1:
0<
17
0>
0@
1;
0?
1@
09
00
0%
#540000
1#
11
1<
1>
0@
#545000
0#
01
0<
0>
1@
#550000
1#
11
1<
1>
0@
#555000
0!
03
0:
07
0;
#565000
1!
0#
13
01
0<
1:
17
0>
1@
1;
1A
1>
18
1/
1$
#570000
0!
03
0:
07
0;
#575000
1!
13
1:
17
1;
1?
0@
19
10
1%
#580000
0!
1#
03
11
1<
0:
07
0>
1@
0;
#585000
1!
13
1:
17
1;
0?
0@
09
00
0%
#590000
0#
01
0<
1>
1@
#595000
1#
0!
11
03
0:
1<
07
0>
0@
0;
#600000
0#
01
0<
1>
1@
#610000
1!
13
1:
17
1;
1?
0@
19
10
1%
#620000
0!
1#
03
11
1<
0:
07
0>
1@
0;
#625000
1!
13
1:
17
1;
0?
0@
09
00
0%
#630000
0#
01
0<
1>
1@
#635000
1#
11
1<
0>
0@
#640000
0#
0!
01
03
0:
0<
07
1>
1@
0;
#645000
1!
13
1:
17
1;
1?
0@
19
10
1%
#650000
0!
03
0:
07
0;
#655000
1!
1#
13
11
1<
1:
17
0>
1@
1;
0?
0@
09
00
0%
#660000
0!
03
0:
07
0;
#665000
0#
01
0<
1>
1@
#675000
1#
11
1<
0>
0@
#680000
0#
1!
01
13
1:
0<
17
1>
1@
1;
1?
0@
19
10
1%
#695000
1#
11
1<
0>
1@
#700000
0#
01
0<
1>
0@
#705000
1#
0!
11
03
0:
1<
07
0>
1@
0;
#710000
1!
13
1:
17
1;
0?
0@
09
00
0%
#715000
0!
03
0:
07
0;
#720000
0#
01
0<
1>
1@
#725000
1#
11
1<
0>
0@
#730000
1!
13
1:
17
1;
0A
1>
08
0/
0$
#750000
0#
01
0<
0>
1@
#765000
1#
0!
11
03
0:
1<
07
1>
0@
0;
#775000
0#
01
0<
0>
1@
#785000
1#
1!
11
13
1:
1<
17
1>
0@
1;
1?
1@
19
10
1%
#790000
0#
01
0<
0>
0@
#795000
1#
0!
11
03
0:
1<
07
1>
1@
0;
#800000
0#
1!
01
13
1:
0<
17
0>
0@
1;
0?
1@
09
00
0%
#805000
1#
0!
11
03
0:
1<
07
1>
0@
0;
#815000
0#
1!
01
13
1:
0<
17
0>
1@
1;
1A
1>
18
1/
1$
#830000
0!
03
0:
07
0;
#835000
1!
1#
13
11
1<
1:
17
0>
0@
1;
0A
1>
08
0/
0$
#850000
0!
0#
03
01
0<
0:
07
0>
1@
0;
#855000
1!
13
1:
17
1;
1A
1>
18
1/
1$
#865000
0!
1#
03
11
1<
0:
07
0>
0@
0;
#870000
1!
13
1:
17
1;
0A
1>
08
0/
0$
#875000
0!
0#
03
01
0<
0:
07
0>
1@
0;
#880000
1#
11
1<
1>
0@
#885000
1!
13
1:
17
1;
1?
1@
19
10
1%
#895000
0#
01
0<
0>
0@
#900000
1#
0!
11
03
0:
1<
07
1>
1@
0;
#905000
1!
13
1:
17
1;
1A
0>
18
1/
1$
#910000
0!
03
0:
07
0;
#915000
1!
13
1:
17
1;
0?
0@
09
00
0%
#925000
0!
03
0:
07
0;
#935000
1!
0#
13
01
0<
1:
17
1>
1@
1;
1?
0@
19
10
1%
#940000
0!
03
0:
07
0;
#945000
1!
13
1:
17
1;
0A
0>
08
0/
0$
#955000
0!
1#
03
11
1<
0:
07
1>
1@
0;
#960000
1!
0#
13
01
0<
1:
17
0>
0@
1;
0?
1@
09
00
0%
#965000
0!
1#
03
11
1<
0:
07
1>
0@
0;
#970000
1!
0#
13
01
0<
1:
17
0>
1@
1;
1A
1>
18
1/
1$
#975000
0!
1#
03
11
1<
0:
07
0>
0@
0;
#980000
1!
0#
13
01
0<
1:
17
1>
1@
1;
1?
0@
19
10
1%
#985000
0!
03
0:
07
0;
#995000
1!
13
1:
17
1;
0A
0>
08
0/
0$
