1ª Matrícula/1º Semestre/Introdução aos Sistemas Digitais/Testes/Quartus Prime Lite/Full_Subtractor/simulation/qsim/Full_Subtractor.msim.vcd
$comment
	File created using the following command:
		vcd file Full_Subtractor.msim.vcd -direction
$end
$date
	Tue Nov 29 22:33:24 2022
$end
$version
	ModelSim Version 2020.1
$end
$timescale
	1ps
$end

$scope module Full_Subtractor_vlg_vec_tst $end
$var reg 1 ! A $end
$var reg 1 " B $end
$var reg 1 # C $end
$var wire 1 $ B0 $end
$var wire 1 % D $end

$scope module i1 $end
$var wire 1 & gnd $end
$var wire 1 ' vcc $end
$var wire 1 ( unknown $end
$var tri1 1 ) devclrn $end
$var tri1 1 * devpor $end
$var tri1 1 + devoe $end
$var wire 1 , D~output_o $end
$var wire 1 - B0~output_o $end
$var wire 1 . A~input_o $end
$var wire 1 / B~input_o $end
$var wire 1 0 C~input_o $end
$var wire 1 1 inst1~0_combout $end
$var wire 1 2 inst6~0_combout $end
$upscope $end
$upscope $end
$enddefinitions $end
#0
$dumpvars
1!
1"
1#
1$
1%
0&
1'
x(
1)
1*
1+
1,
1-
1.
1/
10
11
12
$end
#5000
0"
0/
02
01
0,
0-
0$
0%
#15000
0!
0#
1"
0.
00
1/
12
11
1,
1-
1$
1%
#20000
1#
10
01
0,
0%
#25000
0"
0#
0/
00
02
0-
0$
#30000
1!
1"
1#
1.
1/
10
12
11
1,
1-
1$
1%
#40000
0!
0"
0.
0/
#45000
0#
1!
1"
00
1.
1/
02
01
0,
0-
0$
0%
#50000
1#
0!
10
0.
12
1-
1$
#55000
0"
0#
0/
00
02
0-
0$
#60000
1!
1.
11
1,
1%
#65000
1#
0!
10
0.
12
1-
1$
#70000
1"
0#
1/
00
#80000
0"
0/
02
01
0,
0-
0$
0%
#90000
1"
1/
12
11
1,
1-
1$
1%
#95000
1!
1.
02
01
0,
0-
0$
0%
#100000
0"
0/
11
1,
1%
#105000
1#
10
01
0,
0%
#110000
1"
0#
1/
00
#115000
0!
0.
12
11
1,
1-
1$
1%
#120000
0"
1#
0/
10
#125000
0#
00
02
01
0,
0-
0$
0%
#130000
1"
1/
12
11
1,
1-
1$
1%
#135000
1#
0"
10
0/
#140000
1"
1/
01
0,
0%
#145000
1!
0"
1.
0/
02
0-
0$
#150000
0!
0.
12
11
1,
1-
1$
1%
#155000
1"
1/
01
0,
0%
#160000
0"
0/
11
1,
1%
#165000
0#
00
02
01
0,
0-
0$
0%
#170000
1!
1"
1.
1/
#175000
1#
0!
10
0.
12
1-
1$
#180000
0"
0#
0/
00
02
0-
0$
#185000
1#
10
12
11
1,
1-
1$
1%
#190000
1"
0#
1/
00
#195000
0"
0/
02
01
0,
0-
0$
0%
#200000
1#
10
12
11
1,
1-
1$
1%
#205000
1"
0#
1/
00
#210000
1!
1.
02
01
0,
0-
0$
0%
#215000
0"
0/
11
1,
1%
#220000
1"
1/
01
0,
0%
#225000
1#
0!
0"
10
0.
0/
12
11
1,
1-
1$
1%
#235000
1!
1"
1.
1/
#245000
0#
00
02
01
0,
0-
0$
0%
#250000
0"
1#
0/
10
#255000
0!
0.
12
11
1,
1-
1$
1%
#260000
1!
1.
02
01
0,
0-
0$
0%
#265000
1"
1/
12
11
1,
1-
1$
1%
#270000
0"
0/
02
01
0,
0-
0$
0%
#275000
0#
00
11
1,
1%
#280000
0!
1"
0.
1/
12
1-
1$
#285000
1#
0"
10
0/
#290000
1!
0#
1"
1.
00
1/
02
01
0,
0-
0$
0%
#295000
0"
0/
11
1,
1%
#300000
1"
1/
01
0,
0%
#305000
0!
0.
12
11
1,
1-
1$
1%
#310000
1!
1.
02
01
0,
0-
0$
0%
#315000
1#
10
12
11
1,
1-
1$
1%
#320000
0"
0!
0#
0/
0.
00
02
01
0,
0-
0$
0%
#325000
1#
10
12
11
1,
1-
1$
1%
#330000
0#
00
02
01
0,
0-
0$
0%
#335000
1"
1!
1/
1.
#340000
0!
0.
12
11
1,
1-
1$
1%
#345000
1#
0"
10
0/
#350000
1!
0#
1"
1.
00
1/
02
01
0,
0-
0$
0%
#355000
1#
0"
10
0/
#360000
0!
1"
0.
1/
12
1-
1$
#365000
0#
1!
00
1.
02
0-
0$
#370000
0"
0/
11
1,
1%
#375000
1#
0!
1"
10
0.
1/
12
01
0,
1-
1$
0%
#380000
0#
1!
00
1.
02
0-
0$
#385000
0"
1#
0/
10
#395000
1"
1/
12
11
1,
1-
1$
1%
#400000
0#
00
02
01
0,
0-
0$
0%
#405000
0"
1#
0/
10
#410000
1"
1/
12
11
1,
1-
1$
1%
#415000
0!
0.
01
0,
0%
#420000
0#
00
11
1,
1%
#425000
1#
10
01
0,
0%
#430000
0"
0/
11
1,
1%
#435000
1!
0#
1.
00
02
0-
0$
#445000
1#
10
01
0,
0%
#450000
0#
00
11
1,
1%
#455000
0!
1#
0.
10
12
1-
1$
#460000
1"
0#
1/
00
#465000
0"
0/
02
01
0,
0-
0$
0%
#470000
1#
10
12
11
1,
1-
1$
1%
#475000
1"
1/
01
0,
0%
#480000
1!
0#
1.
00
02
0-
0$
#485000
1#
10
12
11
1,
1-
1$
1%
#490000
0"
0#
0/
00
02
0-
0$
#495000
0!
0.
01
0,
0%
#500000
1#
10
12
11
1,
1-
1$
1%
#505000
1"
1!
0#
1/
1.
00
02
01
0,
0-
0$
0%
#510000
0"
0/
11
1,
1%
#515000
1#
1"
10
1/
12
1-
1$
#520000
0!
0#
0"
0.
00
0/
02
01
0,
0-
0$
0%
#525000
1!
1"
1.
1/
#530000
1#
0!
10
0.
12
1-
1$
#535000
0"
0/
11
1,
1%
#545000
1!
1.
02
01
0,
0-
0$
0%
#555000
0#
1"
00
1/
#560000
0!
1#
0"
0.
10
0/
12
11
1,
1-
1$
1%
#570000
1!
1.
02
01
0,
0-
0$
0%
#575000
1"
1/
12
11
1,
1-
1$
1%
#580000
0!
0.
01
0,
0%
#585000
1!
1.
11
1,
1%
#595000
0"
0/
02
01
0,
0-
0$
0%
#600000
0#
00
11
1,
1%
#605000
0!
1#
0.
10
12
1-
1$
#610000
1"
1!
1/
1.
#615000
0"
0!
0/
0.
#620000
1"
1/
01
0,
0%
#625000
1!
0"
1.
0/
02
0-
0$
#630000
0#
0!
1"
00
0.
1/
12
11
1,
1-
1$
1%
#635000
1#
1!
0"
10
1.
0/
02
01
0,
0-
0$
0%
#640000
0#
0!
1"
00
0.
1/
12
11
1,
1-
1$
1%
#645000
1!
1.
02
01
0,
0-
0$
0%
#650000
1#
0"
0!
10
0/
0.
12
11
1,
1-
1$
1%
#655000
0#
00
02
01
0,
0-
0$
0%
#660000
1"
1!
1#
1/
1.
10
12
11
1,
1-
1$
1%
#670000
0!
0#
0.
00
#675000
1#
10
01
0,
0%
#680000
1!
0#
1.
00
02
0-
0$
#685000
0!
0.
12
11
1,
1-
1$
1%
#695000
0"
0/
02
01
0,
0-
0$
0%
#700000
1#
10
12
11
1,
1-
1$
1%
#705000
1!
0#
1.
00
02
0-
0$
#710000
1"
1/
01
0,
0%
#715000
0!
0.
12
11
1,
1-
1$
1%
#725000
1#
0"
10
0/
#730000
1!
1"
1.
1/
#735000
0!
0.
01
0,
0%
#740000
0"
0/
11
1,
1%
#745000
0#
00
02
01
0,
0-
0$
0%
#750000
1!
1"
1.
1/
#755000
1#
10
12
11
1,
1-
1$
1%
#760000
0#
00
02
01
0,
0-
0$
0%
#775000
0!
1#
0.
10
12
1-
1$
#780000
1!
0#
1.
00
02
0-
0$
#785000
0!
0.
12
11
1,
1-
1$
1%
#790000
1!
1.
02
01
0,
0-
0$
0%
#795000
0"
0/
11
1,
1%
#800000
0!
1"
0.
1/
12
1-
1$
#805000
0"
0/
02
01
0,
0-
0$
0%
#810000
1"
1/
12
11
1,
1-
1$
1%
#815000
1#
1!
10
1.
#820000
0"
0!
0/
0.
#825000
0#
00
02
01
0,
0-
0$
0%
#830000
1"
1#
1/
10
12
1-
1$
#840000
0"
0#
0/
00
02
0-
0$
#845000
1!
1.
11
1,
1%
#850000
1"
0!
1/
0.
12
1-
1$
#855000
1#
0"
1!
10
0/
1.
02
01
0,
0-
0$
0%
#860000
0#
1"
0!
00
1/
0.
12
11
1,
1-
1$
1%
#865000
0"
1!
0/
1.
02
0-
0$
#870000
1#
0!
10
0.
12
1-
1$
#875000
1"
0#
1!
1/
00
1.
02
01
0,
0-
0$
0%
#880000
0"
1#
0/
10
#885000
0!
1"
0#
0.
1/
00
12
11
1,
1-
1$
1%
#890000
0"
0/
02
01
0,
0-
0$
0%
#895000
1"
1/
12
11
1,
1-
1$
1%
#900000
1!
0"
1.
0/
02
0-
0$
#905000
0!
1"
0.
1/
12
1-
1$
#910000
1#
10
01
0,
0%
#915000
0"
0#
0/
00
02
0-
0$
#920000
1!
1"
1.
1/
#925000
0!
0"
0.
0/
#930000
1!
1.
11
1,
1%
#935000
0!
0.
01
0,
0%
#940000
1#
1"
10
1/
12
1-
1$
#945000
1!
0"
1.
0/
02
0-
0$
#950000
0#
0!
00
0.
#955000
1#
1!
10
1.
#960000
1"
0#
1/
00
#965000
0!
0.
12
11
1,
1-
1$
1%
#970000
0"
1!
0/
1.
02
0-
0$
#975000
1#
0!
10
0.
12
1-
1$
#980000
1"
1/
01
0,
0%
#990000
0#
00
11
1,
1%
#995000
1!
0"
1#
1.
0/
10
02
01
0,
0-
0$
0%
