1ª Matrícula/1º Semestre/Introdução aos Sistemas Digitais/Testes/Quartus Prime Lite/Two_Bit_Multiplier/simulation/qsim/Two_Bit_Multiplier.msim.vcd
$comment
	File created using the following command:
		vcd file Two_Bit_Multiplier.msim.vcd -direction
$end
$date
	Wed Nov 30 13:38:36 2022
$end
$version
	ModelSim Version 2020.1
$end
$timescale
	1ps
$end

$scope module Two_Bit_Multiplier_vlg_vec_tst $end
$var reg 1 ! A0 $end
$var reg 1 " A0_1 $end
$var reg 1 # A1 $end
$var reg 1 $ A1_1 $end
$var reg 1 % B0 $end
$var reg 1 & B0_1 $end
$var reg 1 ' B1 $end
$var reg 1 ( B1_1 $end
$var wire 1 ) p0 $end
$var wire 1 * P1 $end
$var wire 1 + P2 $end
$var wire 1 , P3 $end

$scope module i1 $end
$var wire 1 - gnd $end
$var wire 1 . vcc $end
$var wire 1 / unknown $end
$var tri1 1 0 devclrn $end
$var tri1 1 1 devpor $end
$var tri1 1 2 devoe $end
$var wire 1 3 p0~output_o $end
$var wire 1 4 P1~output_o $end
$var wire 1 5 P2~output_o $end
$var wire 1 6 P3~output_o $end
$var wire 1 7 A0~input_o $end
$var wire 1 8 B0~input_o $end
$var wire 1 9 AND2_1~combout $end
$var wire 1 : A1~input_o $end
$var wire 1 ; A0_1~input_o $end
$var wire 1 < B1~input_o $end
$var wire 1 = B0_1~input_o $end
$var wire 1 > XOR1~combout $end
$var wire 1 ? AND2_5~combout $end
$var wire 1 @ A1_1~input_o $end
$var wire 1 A B1_1~input_o $end
$var wire 1 B XOR2~combout $end
$var wire 1 C AND2_6~combout $end
$upscope $end
$upscope $end
$enddefinitions $end
#0
$dumpvars
1!
1"
1#
1$
1%
1&
1'
0(
1)
0*
1+
0,
0-
1.
x/
10
11
12
13
04
15
06
17
18
19
1:
1;
1<
1=
0>
1?
1@
0A
1B
0C
$end
#5000
0#
0$
0%
0&
0:
0@
08
0=
0?
1>
09
03
14
1*
0)
0B
05
0+
#10000
1%
18
19
13
1)
#15000
0"
1(
1&
0;
1A
1=
0>
04
0*
#20000
1#
1$
1"
0&
1:
1@
1;
0=
1>
1B
15
14
1*
1+
#25000
0!
0'
0%
0(
0#
0$
0"
07
0<
08
0A
0:
0@
0;
09
0>
0B
05
04
03
0)
0*
0+
#30000
1!
1'
1%
1"
17
1<
18
1;
19
1>
14
13
1)
1*
#35000
1&
1(
1$
0'
0%
1=
1A
1@
0<
08
0>
1B
09
03
15
04
0*
1+
0)
#40000
0$
1'
0@
1<
0B
1>
14
05
0+
1*
#45000
0!
0&
0(
07
0=
0A
#50000
1#
1$
0'
1:
1@
0<
0>
04
0*
#55000
1%
1&
1(
18
1=
1A
1>
1B
15
14
1*
1+
#60000
0#
1'
0%
0&
0:
1<
08
0=
#65000
0$
0'
0@
0<
0B
0>
04
05
0+
0*
#70000
1!
0(
1#
1$
17
0A
1:
1@
#75000
1'
1(
0#
0$
1<
1A
0:
0@
1>
14
1*
#80000
0"
1&
1#
1$
0;
1=
1:
1@
1B
15
1+
#85000
1%
0#
18
0:
19
0>
04
13
1)
0*
#90000
0'
1"
0&
0$
0%
1#
0<
1;
0=
0@
08
1:
0B
09
03
05
0+
0)
#95000
0!
1&
1%
07
1=
18
1>
14
1*
#100000
0(
1'
0"
1$
0#
1!
0&
0A
1<
0;
1@
0:
17
0=
0>
19
13
04
0*
1)
#105000
0%
1(
1"
1&
08
1A
1;
1=
09
1B
1>
14
15
03
0)
1+
1*
#110000
1#
0(
0"
0&
1:
0A
0;
0=
0>
0B
05
04
0*
0+
#115000
0$
1%
0@
18
19
13
1)
#120000
0!
1(
1$
0%
07
1A
1@
08
09
1B
15
03
0)
1+
#125000
0'
1&
0$
1%
0<
1=
0@
18
1>
0B
05
14
1*
0+
#130000
1'
0&
1$
0%
1<
0=
1@
08
0>
1B
15
04
0*
1+
#135000
1!
0(
17
0A
0B
05
0+
#140000
1"
0'
1&
1%
0!
1(
1;
0<
1=
18
07
1A
1>
1B
15
14
1*
1+
#145000
0#
1'
0&
1!
0(
0:
1<
0=
17
0A
19
0B
05
13
1)
0+
#150000
0$
0%
1&
0!
0@
08
1=
07
09
03
0)
#155000
1#
1$
1%
1:
1@
18
1?
0>
04
0*
1B
15
1+
#165000
1!
17
19
13
1)
#170000
0"
1(
0#
0$
0%
0!
0;
1A
0:
0@
08
07
0?
09
03
0)
0B
05
0+
#175000
1#
1$
1:
1@
1>
1B
15
14
1*
1+
#180000
0'
1"
1!
0#
0<
1;
17
0:
0>
04
0*
#185000
1%
1'
0!
1#
18
1<
07
1:
1?
1C
0B
05
16
1,
0+
#190000
0"
0%
0#
0;
08
0:
0?
0C
1B
15
06
0,
1+
#195000
0&
0(
0'
1"
1#
0=
0A
0<
1;
1:
0B
05
0+
#200000
1!
1&
1'
0"
17
1=
1<
0;
1>
14
1*
#205000
0#
0'
1"
0:
0<
1;
0>
04
0*
#210000
1%
0!
1#
18
07
1:
1>
14
1*
#215000
1(
0&
1'
0"
0%
1A
0=
1<
0;
08
1B
0>
04
15
1+
0*
#220000
0$
0(
1"
0@
0A
1;
0B
1>
14
05
0+
1*
#225000
1!
1%
1(
0"
17
18
1A
0;
19
0>
04
13
1)
0*
#230000
1&
0'
1$
0!
0%
1=
0<
1@
07
08
1>
1B
09
03
15
14
1*
1+
0)
#235000
0#
0(
1'
0$
1!
0:
0A
1<
0@
17
0>
0B
05
04
0*
0+
#240000
1%
0'
1$
0!
18
0<
1@
07
#245000
1(
1'
0$
1!
1A
1<
0@
17
19
13
1)
#250000
1"
0&
0%
0(
1$
1;
0=
08
0A
1@
1>
09
03
14
1*
0)
#255000
0"
1%
1(
0$
0;
18
1A
0@
0>
19
13
04
0*
1)
#260000
0'
0!
0%
0(
0<
07
08
0A
09
03
0)
#265000
1"
1$
1'
1%
1(
1;
1@
1<
18
1A
1>
1B
15
14
1*
1+
#270000
0"
0'
0;
0<
0>
04
0*
#275000
1#
1!
0$
0(
1'
1:
17
0@
0A
1<
19
0B
05
13
1)
0+
#280000
1&
0#
0!
1$
1=
0:
07
1@
09
03
0)
#285000
0%
1"
1#
1!
0$
08
1;
1:
17
0@
1?
1B
15
1+
#290000
0'
0&
1%
0"
1$
0<
0=
18
0;
1@
0?
19
13
1)
0B
05
0+
#295000
1(
0#
1&
0$
1A
0:
1=
0@
#300000
0%
1"
1#
08
1;
1:
09
1>
14
03
0)
1*
#305000
0!
0(
1%
0"
0#
07
0A
18
0;
0:
0>
04
0*
#310000
1'
0&
1$
1!
1(
1"
1<
0=
1@
17
1A
1;
1>
1B
19
13
15
14
1*
1+
1)
#315000
0%
1#
0'
1&
0$
0(
0"
08
1:
0<
1=
0@
0A
0;
09
0B
05
03
0)
0+
#320000
1%
0#
1'
0&
1$
1"
18
0:
1<
0=
1@
1;
19
13
1)
#325000
0$
0@
#330000
0!
1#
1$
07
1:
1@
09
03
0)
#335000
1&
0"
0$
1=
0;
0@
#340000
0%
1!
0&
1$
08
17
0=
1@
0>
04
0*
#345000
0!
1&
0$
07
1=
0@
1>
14
1*
#350000
1(
0'
0&
1A
0<
0=
0>
04
0*
#355000
0#
1!
1$
0(
1&
0:
17
1@
0A
1=
#360000
1'
0!
0$
0&
1<
07
0@
0=
#365000
1"
1(
0'
1!
1$
1&
1;
1A
0<
17
1@
1=
1B
15
1+
#370000
1%
0(
0&
18
0A
0=
19
0B
05
13
1)
0+
#375000
1#
0"
1'
0!
0$
1(
1:
0;
1<
07
0@
1A
09
03
0)
#380000
0#
1"
1$
0:
1;
1@
1>
1B
15
14
1*
1+
#385000
0%
1&
1!
0(
08
1=
17
0A
0B
05
0+
#390000
0'
0"
0$
0&
0!
0<
0;
0@
0=
07
0>
04
0*
#395000
1%
1'
1&
18
1<
1=
#400000
1"
1$
0%
0'
1;
1@
08
0<
#405000
1#
1!
0&
0"
0$
1%
1'
1:
17
0=
0;
0@
18
1<
19
13
1)
#410000
1&
1"
0'
1=
1;
0<
1>
14
1*
#415000
0!
1$
1'
07
1@
1<
1?
09
0>
04
03
0)
0*
1B
15
1+
#420000
1(
0#
0&
0"
1!
0'
1A
0:
0=
0;
17
0<
0?
1C
0B
19
13
05
16
1,
0+
1)
0C
1B
15
06
0,
1+
#425000
0%
1#
1"
1'
08
1:
1;
1<
09
1>
14
03
0)
1*
#430000
0$
0(
0!
0#
0"
0'
0@
0A
07
0:
0;
0<
0B
0>
04
05
0+
0*
#440000
1!
1#
17
1:
#445000
1&
1%
1$
1"
1'
0!
1=
18
1@
1;
1<
07
1?
1B
15
1+
#450000
1(
0"
0'
1A
0;
0<
0?
1C
0B
1>
14
05
16
1,
0+
1*
0C
1B
15
06
0,
1+
#455000
0&
0%
1'
0=
08
1<
0>
04
0*
#460000
0#
1!
1"
1&
0'
0:
17
1;
1=
0<
#465000
0(
1%
0"
0A
18
0;
0B
19
13
05
0+
1)
#470000
0$
1#
1'
1(
0@
1:
1<
1A
1>
14
1*
#475000
0%
1$
0#
0(
08
1@
0:
0A
09
0>
04
03
0)
0*
#480000
0&
1"
1%
1#
1(
0=
1;
18
1:
1A
1>
19
1B
15
13
14
1*
1)
1+
#485000
0'
0"
0#
0<
0;
0:
0>
04
0*
#490000
1&
0%
1'
1=
08
1<
09
03
0)
#495000
0(
0A
0B
05
0+
#500000
0!
1#
0&
07
1:
0=
#505000
0'
1&
0<
1=
1>
14
1*
#510000
0$
1"
1!
0#
1'
0@
1;
17
0:
1<
#515000
1(
0&
1$
1#
1A
0=
1@
1:
1B
15
1+
#520000
0"
0(
0;
0A
0>
0B
05
04
0*
0+
#525000
1&
0#
1"
1=
0:
1;
1>
14
1*
#530000
0'
0$
1#
0"
0<
0@
1:
0;
#535000
1'
1"
1<
1;
1?
0>
04
0*
1B
15
1+
#540000
1%
0&
0"
18
0=
0;
0?
19
13
1)
0B
05
0+
#545000
0!
0#
0'
1&
1"
07
0:
0<
1=
1;
09
03
0)
#550000
0%
1!
1'
0&
08
17
1<
0=
1>
14
1*
#555000
1(
1#
1&
1A
1:
1=
1?
0>
04
0*
1B
15
1+
#560000
0!
0(
0#
07
0A
0:
0?
1>
14
1*
0B
05
0+
#565000
1$
1%
1(
1#
1@
18
1A
1:
1?
1B
0>
04
15
1+
0*
1C
0B
05
16
1,
0+
#570000
0'
0$
0(
0#
0<
0@
0A
0:
0?
0C
1B
15
06
0,
1+
0B
05
0+
#575000
0&
1'
1#
0=
1<
1:
1>
14
1*
#580000
1!
1&
0'
0#
17
1=
0<
0:
19
0>
04
13
1)
0*
#585000
0%
1$
1#
08
1@
1:
09
1>
14
03
0)
1*
#590000
0"
1'
0#
0;
1<
0:
0>
04
0*
#595000
0!
0&
1#
07
0=
1:
#600000
1(
0$
0'
1!
0#
1A
0@
0<
17
0:
#605000
1%
1&
0(
1$
1'
0!
1#
18
1=
0A
1@
1<
07
1:
1>
14
1*
#610000
0%
0$
0#
08
0@
0:
0>
04
0*
#615000
1%
1#
18
1:
1>
14
1*
#620000
1"
0&
1(
0'
1!
0%
0#
1;
0=
1A
0<
17
08
0:
0>
04
0*
#625000
1'
0!
1<
07
1>
14
1*
#630000
1$
0"
1&
0(
1#
0'
1@
0;
1=
0A
1:
0<
#635000
1!
0$
1"
0&
1(
0#
1'
17
0@
1;
0=
1A
0:
1<
#640000
0!
1$
0"
1#
07
1@
0;
1:
1B
0>
04
15
1+
0*
#645000
0(
0$
1"
0A
0@
1;
0B
1>
14
05
0+
1*
#650000
0'
1$
0<
1@
0>
04
0*
#655000
0#
0:
#660000
1%
1(
0"
18
1A
0;
1B
15
1+
#665000
1#
0(
1"
1:
0A
1;
0B
05
0+
#670000
1&
1'
1(
0"
1=
1<
1A
0;
1>
1B
15
14
1*
1+
#675000
1!
0$
0'
0(
17
0@
0<
0A
19
0B
05
13
1)
0+
#680000
0#
0&
1"
1$
1'
0:
0=
1;
1@
1<
#685000
0%
0!
1#
1&
0$
08
07
1:
1=
0@
1?
09
0>
04
03
0)
0*
1B
15
1+
#690000
0"
0&
1$
0;
0=
1@
0?
0B
05
0+
#695000
1(
0'
1%
1!
0#
1"
1&
0$
1A
0<
18
17
0:
1;
1=
0@
19
13
1)
#700000
1'
0!
0"
1$
1<
07
0;
1@
09
1B
15
03
0)
1+
#705000
0(
1#
0'
1!
1"
0A
1:
0<
17
1;
0B
1>
19
13
14
05
0+
1*
1)
#710000
0%
0$
0#
0"
08
0@
0:
0;
09
0>
04
03
0)
0*
#715000
0!
1$
1#
07
1@
1:
1>
14
1*
#720000
1'
1"
0$
1<
1;
0@
1?
0>
04
0*
1B
15
1+
#725000
0&
1!
0#
0=
17
0:
0?
1>
14
1*
0B
05
0+
#730000
1(
1%
0'
1$
0!
1#
1A
18
0<
1@
07
1:
1B
0>
04
15
1+
0*
#735000
0"
1&
0(
0%
1!
0;
1=
0A
08
17
1>
0B
05
14
1*
0+
#740000
1'
0#
1(
1%
1<
0:
1A
18
0>
1B
19
13
15
04
0*
1+
1)
#745000
1"
0&
0!
0(
0%
1;
0=
07
0A
08
1>
09
0B
05
03
14
1*
0)
0+
#750000
0'
1&
0<
1=
0>
04
0*
#755000
0$
1(
0&
0@
1A
0=
#760000
1#
1!
1%
1'
1$
1:
17
18
1<
1@
1>
19
1B
15
13
14
1*
1)
1+
#765000
1&
0#
0%
0'
1=
0:
08
0<
0>
09
03
04
0*
0)
#770000
0!
0&
07
0=
#775000
0"
0(
1#
1'
0;
0A
1:
1<
0B
05
0+
#780000
1!
1&
0'
17
1=
0<
1>
14
1*
#785000
1(
0#
0&
1'
1A
0:
0=
1<
1B
0>
04
15
1+
0*
#790000
1%
1"
0!
0'
18
1;
07
0<
#795000
0$
1&
0%
1!
1'
0@
1=
08
17
1<
0B
1>
14
05
0+
1*
#800000
0(
1%
0'
0A
18
0<
19
0>
04
13
1)
0*
#805000
1#
0"
0&
0%
1:
0;
0=
08
09
03
0)
#810000
1(
1'
1&
1%
1A
1<
1=
18
1>
19
13
14
1*
1)
#815000
1$
0#
0(
0%
1@
0:
0A
08
0>
09
03
04
0*
0)
#820000
1"
1(
1%
1;
1A
18
1>
1B
19
13
15
14
1*
1+
1)
#825000
0!
0'
0&
0$
1#
07
0<
0=
0@
1:
09
0>
0B
05
04
03
0)
0*
0+
#830000
0(
1!
1'
0A
17
1<
19
1>
14
13
1)
1*
#835000
0"
1(
0;
1A
0>
04
0*
#840000
0%
1&
0!
0(
08
1=
07
0A
09
1>
14
03
0)
1*
#845000
0'
1"
0&
1!
0<
1;
0=
17
0>
04
0*
#850000
1$
0#
1%
0"
1&
1@
0:
18
0;
1=
19
13
1)
#855000
1(
0!
1#
1"
0&
1A
07
1:
1;
0=
1B
09
03
15
1+
0)
#860000
1'
0$
0%
0(
0"
1&
1<
0@
08
0A
0;
1=
1>
0B
05
14
1*
0+
#865000
1!
0#
1(
0&
17
0:
1A
0=
0>
04
0*
#870000
0'
1%
1"
0!
1&
0<
18
1;
07
1=
#875000
1#
1'
0%
1!
1:
1<
08
17
1?
1B
15
1+
#880000
0(
0&
0'
0!
0A
0=
0<
07
0?
0B
05
0+
#885000
1$
0"
1&
1@
0;
1=
1>
14
1*
#890000
0#
1(
1'
1!
0$
1"
0&
0:
1A
1<
17
0@
1;
0=
#895000
1#
0(
0'
1$
0"
1&
1:
0A
0<
1@
0;
1=
#900000
0!
0#
1'
0$
07
0:
1<
0@
0>
04
0*
#905000
0&
1!
0'
0=
17
0<
#910000
1$
1&
1@
1=
#915000
1%
1(
0!
1'
0$
18
1A
07
1<
0@
#920000
0&
0%
0=
08
#925000
1"
1#
0(
1!
0'
1$
1%
1;
1:
0A
17
0<
1@
18
19
13
1)
#930000
0!
1'
07
1<
09
1>
14
03
0)
1*
#935000
1(
0%
1!
0'
1A
08
17
0<
1B
0>
04
15
1+
0*
#940000
1&
0(
0!
1=
0A
07
1>
0B
05
14
1*
0+
#945000
0"
0#
0$
1'
0&
1(
0;
0:
0@
1<
0=
1A
0>
04
0*
#950000
0'
0<
#955000
1$
1&
0(
1'
1@
1=
0A
1<
#960000
1%
1!
1#
0$
0&
1(
18
17
1:
0@
0=
1A
19
13
1)
#965000
0'
0%
1$
1&
0(
0<
08
1@
1=
0A
1>
09
03
14
1*
0)
#970000
1"
0#
1'
0$
0&
1;
0:
1<
0@
0=
#975000
0!
1%
07
18
#980000
0"
0'
1$
0;
0<
1@
0>
04
0*
#985000
1!
0%
0$
17
08
0@
#990000
1(
1&
1"
0!
1$
1A
1=
1;
07
1@
1B
15
1+
#995000
1#
1'
0(
0&
0"
1!
1:
1<
0A
0=
0;
17
0B
05
0+
