1ª Matrícula/1º Semestre/Introdução aos Sistemas Digitais/Testes/Quartus Prime Lite/EqCmpDemo/simulation/qsim/EqCmpDemo.msim.vcd
$comment
	File created using the following command:
		vcd file EqCmpDemo.msim.vcd -direction
$end
$date
	Tue Nov 22 20:55:29 2022
$end
$version
	ModelSim Version 2020.1
$end
$timescale
	1ps
$end

$scope module EqCmpDemo_vlg_vec_tst $end
$var reg 4 ! input0 [3:0] $end
$var reg 4 " input1 [3:0] $end
$var wire 1 # cmpOut $end

$scope module i1 $end
$var wire 1 $ gnd $end
$var wire 1 % vcc $end
$var wire 1 & unknown $end
$var tri1 1 ' devclrn $end
$var tri1 1 ( devpor $end
$var tri1 1 ) devoe $end
$var wire 1 * cmpOut~output_o $end
$var wire 1 + input1[0]~input_o $end
$var wire 1 , input1[1]~input_o $end
$var wire 1 - input0[1]~input_o $end
$var wire 1 . input0[0]~input_o $end
$var wire 1 / and_1~0_combout $end
$var wire 1 0 input1[2]~input_o $end
$var wire 1 1 input1[3]~input_o $end
$var wire 1 2 input0[3]~input_o $end
$var wire 1 3 input0[2]~input_o $end
$var wire 1 4 and_1~1_combout $end
$var wire 1 5 and_1~combout $end
$upscope $end
$upscope $end
$enddefinitions $end
#0
$dumpvars
b1110 !
b1 "
0#
0$
1%
x&
1'
1(
1)
0*
1+
0,
1-
0.
0/
00
01
12
13
04
05
$end
#5000
b1010 !
b1001 "
b1011 "
1,
11
03
14
#10000
b10 !
b0 !
b1010 "
b100 !
b10 "
b0 "
0+
0,
01
0-
13
02
1/
04
#15000
b101 !
b1101 !
b1 "
1+
1.
12
#20000
b101 "
b1111 !
b1110 !
0.
1-
10
0/
#25000
b1010 !
b1101 "
b1111 "
b10 !
b11 !
1,
11
1.
03
02
1/
#30000
b1110 "
b1010 "
b1 !
b101 !
b1000 "
b1101 !
b1100 !
0.
0-
13
12
0+
0,
00
#35000
b0 "
b1 "
b1110 !
b1010 !
b1011 !
1.
1-
03
1+
01
0/
#40000
b11 !
b10 !
0.
02
14
#45000
b0 "
b0 !
b1 !
1.
0-
0+
#50000
b100 "
b11 !
1-
10
04
#55000
b111 !
b1111 !
b101 "
b1110 !
b1 "
b1100 !
1+
00
0.
0-
13
12
#60000
b1001 "
b1110 !
1-
11
#65000
b1111 !
b1101 !
1.
0-
1/
#70000
b1011 "
b1001 !
b1 !
b11 "
03
02
1,
01
14
0/
#75000
b10 "
b110 "
b11 !
b111 !
b1110 "
1-
13
0+
10
11
04
#80000
b1100 "
b1111 !
b1101 "
b1001 "
b1101 !
0-
12
1+
0,
00
1/
#85000
b101 !
b1000 "
0+
02
0/
#90000
b1100 "
b1101 "
1+
10
1/
#95000
b1 !
b1111 "
b11 !
1,
1-
03
#100000
b10 !
b1011 "
b110 !
b1001 "
b100 !
0,
00
0.
0-
13
0/
#105000
b1 "
b1100 !
b101 "
12
10
01
#110000
b100 "
b110 "
b100 !
b10 "
02
0+
1,
00
#115000
b101 !
b0 "
b100 "
0,
10
1.
14
#120000
b1100 "
11
04
#125000
b1101 !
12
14
#130000
b1001 !
b1000 !
b1110 "
b1010 "
b0 !
1,
00
0.
03
02
04
#135000
b10 !
b10 "
b11 !
b0 "
b100 "
0,
10
01
1.
1-
#140000
b101 "
1+
#145000
b111 !
b1101 "
b110 !
11
0.
13
#150000
b100 !
b1111 "
b1110 "
b110 "
0+
1,
01
0-
14
#155000
b10 "
b0 !
b1 !
b11 !
b1010 "
1.
1-
03
00
11
04
#160000
b1000 "
b1001 "
b1101 "
1+
0,
10
#165000
b1111 "
b1110 "
0+
1,
#170000
b1011 !
b1111 !
b1101 !
b1010 "
00
0-
13
12
#175000
b1001 !
b1011 !
b1110 "
10
1-
03
#180000
b110 "
b100 "
b101 "
b1001 !
b1 "
0-
1+
0,
00
01
1/
#185000
b1 !
b101 !
b111 !
b101 "
10
1-
13
02
14
0/
#190000
b1101 "
b1100 "
0+
11
04
#195000
b101 !
b1000 "
b0 "
b1 "
1+
00
01
0-
1/
#200000
b100 !
b11 "
b1100 !
b1011 "
b1010 "
0+
1,
11
0.
12
0/
#205000
b1000 !
b1001 !
b10 "
01
1.
03
#210000
b1011 !
b0 "
b1 "
b1010 !
b1001 "
1+
0,
11
0.
1-
14
#215000
b1101 "
b1000 !
b1111 "
b1001 !
b111 "
1.
0-
1,
10
01
04
#220000
b110 "
b1011 !
b100 "
1-
0+
0,
#225000
b11 !
b111 !
b0 "
b110 !
b1 "
b100 !
1+
00
0.
0-
13
02
#230000
b1001 "
b1011 "
b1100 !
b1000 !
b1111 "
03
12
1,
10
11
#235000
b1001 !
b1101 "
b1101 !
b1001 "
0,
00
1.
13
1/
#240000
b1000 "
b0 "
b101 !
b1 !
b100 "
03
02
0+
10
01
0/
#245000
b11 !
b10 !
b110 "
b1010 !
b10 "
1,
00
0.
1-
12
1/
#250000
b1010 "
b1110 !
b1100 !
b100 !
0-
13
02
11
0/
#255000
b101 !
b10 "
b1101 !
01
1.
12
#260000
b0 "
b1100 !
b100 !
0.
02
0,
1/
#265000
b1 "
b101 "
b101 !
b1101 !
1.
12
1+
10
#270000
b1101 "
b1100 "
b1000 "
b1100 !
b100 !
0.
02
0+
00
11
#275000
b110 !
b1001 "
b1101 "
1+
10
1-
0/
#280000
b10 !
b11 !
b1011 !
b1001 !
1.
0-
03
12
1/
#285000
b1111 "
b1110 "
b1000 !
b1010 !
0.
1-
0+
1,
#290000
b110 "
b10 "
b1110 !
b1111 !
1.
13
00
01
0/
#295000
b111 !
b0 "
b1 "
b101 !
b1001 "
b1101 "
b1 !
b0 !
1+
0,
10
11
0.
0-
03
02
#300000
b1000 !
b1100 "
b1010 !
b1011 !
0+
1.
1-
12
#305000
b1110 "
b1111 !
b111 !
b1111 "
b101 !
b100 !
0.
0-
13
02
1+
1,
#310000
b111 "
b101 "
b0 !
b100 "
b1 !
1.
03
0+
0,
01
#315000
b1100 "
b1110 "
b101 !
b1111 "
13
1+
1,
11
#320000
b100 !
b111 "
b0 !
01
0.
03
#325000
b1000 !
b1001 !
b1111 "
11
1.
12
#330000
b1011 !
b1111 !
b1110 !
b111 "
01
0.
1-
13
#335000
b11 "
b1 "
b0 "
b110 !
b1000 "
02
0+
0,
00
11
#340000
b1001 "
b1 "
1+
01
#345000
b10 !
b11 !
b11 "
b10 "
b1010 "
0+
1,
11
1.
03
#350000
b1 !
b1001 !
b1101 !
b1100 !
b10 "
01
0.
0-
13
12
#355000
b110 "
b100 !
b1110 "
02
10
11
#360000
b110 !
b1010 "
b1110 !
b10 "
00
01
1-
12
1/
#365000
b0 "
b1 "
b1010 !
b1011 !
b101 "
b1101 "
1.
03
1+
0,
10
11
0/
#370000
b1001 !
b1 !
b1111 "
b1110 "
b101 !
b110 "
0+
1,
01
0-
13
02
14
#375000
b100 !
b10 "
b110 !
b1110 !
00
0.
1-
12
04
1/
#380000
b0 "
b1 "
b1010 !
b1001 "
b1000 !
0-
03
1+
0,
11
0/
14
#385000
b1001 !
b1101 "
b1111 "
b1110 "
b1101 !
b1111 !
0+
1,
10
1.
1-
13
#390000
b111 !
b1010 "
b1000 "
b1001 "
b11 !
1+
0,
00
03
02
04
#395000
b1 "
b1 !
b101 "
b100 "
0-
0+
10
01
#400000
b0 !
b100 !
b0 "
00
0.
13
1/
#405000
b1100 !
b10 "
b1110 !
b1111 !
b1011 !
1,
1.
1-
03
12
0/
#410000
b1010 "
b1011 "
b11 !
b1001 "
b1 !
0-
02
1+
0,
11
1/
#415000
b0 !
b100 !
b1 "
b1100 !
b11 "
1,
01
0.
13
12
0/
#420000
b111 "
b110 "
b1110 !
b1110 "
b110 !
1-
02
0+
10
11
1/
#425000
b111 !
b1100 "
0,
1.
0/
#430000
b11 !
b1 !
b0 !
0.
0-
03
1/
#435000
b100 "
b110 "
b10 !
1-
1,
01
#440000
b10 "
b0 "
0,
00
0/
14
#445000
b1 "
b1010 !
b1110 !
b1001 "
b1100 !
b1011 "
0-
13
12
1+
1,
11
04
#450000
b1111 "
b100 !
b0 !
b10 !
b1101 "
1-
03
02
0,
10
#455000
b1100 "
b100 "
b1010 !
b1110 !
b110 "
13
12
0+
1,
01
1/
#460000
b1111 !
b10 "
b1101 !
b101 !
b0 "
0,
00
1.
0-
02
0/
#465000
b1 "
b1 !
b11 "
03
1+
1,
14
#470000
b0 !
b111 "
b1000 !
b110 "
0+
10
0.
12
04
#475000
b1110 "
b1010 !
b1100 "
b1011 !
b1000 "
b11 !
1.
1-
02
0,
00
11
#480000
b111 !
b1001 "
b1011 "
b110 !
b1111 "
1+
1,
10
0.
13
#485000
b100 !
b1100 !
b1000 !
b1011 "
00
0-
03
12
14
#490000
b0 !
02
04
#495000
b11 "
b1 !
b11 !
b111 !
b111 "
b1111 !
1.
1-
13
12
10
01
1/
#500000
b110 "
b100 "
b111 !
02
0+
0,
14
0/
#505000
b1100 "
b110 !
b100 !
b1000 "
b1001 "
0.
0-
1+
00
11
04
#510000
b101 !
1.
1/
#515000
b1 !
b1001 !
b1 "
b1011 !
b0 "
b1010 !
0+
01
0.
1-
03
12
0/
#520000
b1000 "
b1001 "
b1011 !
1.
1+
11
14
#525000
b1011 "
b1001 !
b1010 "
b1000 !
0.
0-
0+
1,
#530000
b1100 !
b100 !
b1000 "
0,
13
02
1/
04
#535000
b1100 "
b110 !
b1110 !
b1110 "
1-
12
1,
10
14
15
1*
1#
#540000
b110 "
b10 "
b1100 !
b0 "
0-
0,
00
01
04
05
0*
0#
#545000
b1 "
b101 "
b1110 !
b111 "
1-
1+
1,
10
0/
#550000
b110 "
b10 "
b1100 !
b0 "
0-
0+
0,
00
1/
#555000
b100 !
b1000 "
b1001 "
1+
11
02
0/
#560000
b101 !
b1101 "
b111 !
b1111 "
b1111 !
b111 "
1,
10
01
1.
1-
12
1/
#565000
b1011 !
b110 "
b1010 !
b10 "
b1000 !
0+
00
0.
0-
03
0/
#570000
b11 "
b111 "
1+
10
#575000
b0 !
b1111 "
b100 !
b101 !
b111 !
b1011 "
00
11
1.
1-
13
02
1/
#580000
b1001 "
b1000 "
b1111 !
b0 "
b1011 !
b1010 !
b100 "
0.
03
12
0+
0,
10
01
0/
#585000
b1000 !
b101 "
b0 !
b1101 "
b100 !
b1001 "
1+
00
11
0-
13
02
#590000
b1000 "
b1100 "
0+
10
1/
#595000
b1110 "
b110 !
b1110 !
b1010 !
b1111 "
1-
03
12
1+
1,
0/
#600000
b1011 !
b1001 !
b1 !
b101 !
1.
0-
13
02
#605000
b1011 "
b1101 !
b1001 !
03
12
00
14
#610000
b1010 "
b1000 !
b1010 !
b1110 "
b10 !
b110 !
0.
1-
13
02
0+
10
1/
04
#615000
b110 "
b10 "
b10 !
03
00
01
14
15
1*
1#
#620000
b0 !
0-
0/
05
0*
0#
#625000
b0 "
b1 "
b1 !
b1001 "
b1101 "
b11 !
1.
1-
1+
0,
10
11
04
#630000
b1011 !
b1111 !
b1111 "
b1011 "
b1101 !
1,
00
0-
13
12
#635000
b1100 !
0.
#640000
b100 !
b0 !
b1001 "
b1101 "
b10 !
b11 !
0,
10
1.
1-
03
02
#645000
b1100 "
b111 !
b1000 "
13
0+
00
#650000
b0 "
b10 "
b11 "
1+
1,
01
1/
#655000
b1111 !
b1101 !
b1001 !
b1011 "
b1010 "
0+
11
0-
03
12
0/
14
#660000
b1000 !
b1110 "
b110 "
10
01
0.
04
#665000
b0 !
b1 !
1.
02
#670000
b11 !
b1011 !
b1010 !
0.
1-
12
1/
#675000
b100 "
b1000 !
0-
0,
#680000
b1100 !
b101 "
b1101 "
b100 !
b101 !
1+
11
1.
13
02
#685000
b1001 "
b1011 "
b111 !
b1010 "
b10 "
b1111 !
b1110 !
0.
1-
12
0+
1,
00
01
#690000
b1100 !
b11 "
b1011 "
b1101 !
1+
11
1.
0-
0/
#695000
b1001 !
b1001 "
b1011 !
b1000 "
b0 "
0+
0,
01
1-
03
#700000
b100 "
b11 !
b1 !
0-
02
10
#705000
b0 !
b100 !
b110 "
b111 "
b1100 !
b1110 !
1+
1,
0.
1-
13
12
#710000
b1111 "
b1011 "
b1111 !
b1011 !
b1001 "
b11 !
1.
03
02
0,
00
11
#715000
b1000 "
b111 !
13
0+
#720000
b0 "
b100 "
b101 "
b11 !
03
1+
10
01
#725000
b1 !
b0 !
b111 "
b1111 "
b1110 "
b100 !
0+
1,
11
0.
0-
13
#730000
b101 !
1.
#735000
b1101 !
b1010 "
b1001 !
00
03
12
14
#740000
b1011 !
b1011 "
b11 !
b1111 "
1+
10
1-
02
1/
04
#745000
b1101 "
b101 "
b10 !
b100 "
b0 "
0.
0+
0,
00
01
0/
14
#750000
b110 !
b100 !
b1100 !
b10 "
b11 "
1+
1,
0-
13
12
04
#755000
b1011 "
b1111 "
b1000 !
b1010 !
b10 !
b1101 "
b1100 "
1-
03
02
0+
0,
10
11
#760000
b11 !
b100 "
b0 "
b111 !
b101 !
00
01
1.
0-
13
#765000
b1101 !
b10 "
b1100 !
b1010 "
b1110 !
1,
11
0.
1-
12
1/
#770000
b1011 "
b1010 !
b1001 "
03
1+
0,
14
0/
#775000
b1101 "
b1011 !
b1001 !
b1100 "
1.
0-
0+
10
04
#780000
b1 !
b101 !
b1110 "
b111 !
1,
1-
13
02
#785000
b1010 "
b1011 "
b1001 "
1+
0,
00
#790000
b1 "
b110 !
b10 !
b0 !
b11 "
0.
0-
03
1,
01
14
#795000
b1000 !
b111 "
b110 "
b1110 "
b1100 !
0+
10
11
13
12
#800000
b1101 !
b1111 !
b1100 "
b111 !
b1000 "
b1001 "
b1 "
b11 !
1+
0,
00
01
1.
1-
03
02
#805000
b10 !
b1010 !
b101 "
b1101 "
b1110 !
10
11
0.
13
12
#810000
b1100 !
b1100 "
b1101 !
b101 !
b100 "
0+
01
1.
0-
02
#815000
b110 "
b111 !
b1111 !
b1110 "
1-
12
1,
11
#820000
b1111 "
b1110 !
b111 "
0.
1+
01
04
#825000
b11 "
b1 "
0,
00
#830000
b1010 !
b10 !
b0 "
b1000 "
0+
11
03
02
#835000
b0 !
b1 !
b1100 "
b1110 "
b1001 !
b1111 "
b111 "
1+
1,
10
01
1.
0-
12
#840000
b1101 !
b1100 !
b100 !
b110 "
0+
0.
13
02
14
#845000
b100 "
b1100 !
b101 "
12
1+
0,
04
#850000
b1101 !
b111 "
1,
1.
#855000
b1111 "
b101 !
b100 !
b1101 "
0.
02
0,
11
#860000
b1100 !
b1101 !
b1111 "
1,
1.
12
14
#865000
b1111 !
b1110 "
b111 !
0+
1-
02
04
#870000
b11 !
b110 "
b1 !
b1001 !
01
0-
03
12
#875000
b10 "
b1101 !
13
00
#880000
b1100 !
b1110 !
0.
1-
1/
#885000
b11 "
b110 !
b111 "
b111 !
1.
02
1+
10
14
15
1*
1#
#890000
b1111 "
b11 !
b1110 "
b1011 !
b1010 !
0.
03
12
0+
11
04
05
0*
0#
#895000
b1100 "
b1000 !
b1101 "
b1001 !
1.
0-
1+
0,
#900000
b1001 "
b1 !
b1000 "
b0 !
0.
02
0+
00
#905000
b1100 "
b1101 "
1+
10
0/
#910000
b101 "
b100 !
b111 "
b110 !
b1110 !
b1111 !
b110 "
1.
1-
13
12
0+
1,
01
#915000
b10 "
b1010 "
b1011 !
b1000 "
b1001 !
b1001 "
0-
03
1+
0,
00
11
1/
14
15
1*
1#
#920000
b1000 !
b1 "
b1100 !
b11 "
b1110 !
1,
01
0.
1-
13
0/
04
05
0*
0#
#925000
b10 "
b1111 !
b1011 !
b1001 !
1.
0-
03
0+
#930000
b1101 !
b1111 !
1-
13
#935000
b110 "
b1110 "
b1110 !
b1010 !
0.
03
10
11
1/
#940000
b10 !
b1111 "
b0 !
1+
0-
02
0/
#945000
b1 !
b101 !
b1110 "
0+
1.
13
#950000
b1100 "
b1000 "
b0 "
b1101 !
b1 "
12
1+
0,
00
01
1/
#955000
b101 "
b101 !
b100 "
02
0+
10
14
0/
#960000
b111 !
b110 "
1,
1-
#965000
b11 !
b10 "
b1 !
00
0-
03
#970000
b0 !
b1010 "
b1011 "
b1001 "
b100 !
b1101 "
1+
0,
10
11
0.
13
04
#975000
b1001 "
00
#980000
b110 !
b1000 "
b1010 "
b10 !
b1110 "
0+
1,
10
1-
03
1/
#985000
b110 "
01
#990000
b1010 !
b1011 !
b111 "
b1111 !
b1111 "
1+
11
1.
13
12
14
15
1*
1#
#995000
b111 !
b111 "
01
02
