1ª Matrícula/1º Semestre/Introdução aos Sistemas Digitais/Testes/Quartus Prime Lite/Full_Adder/simulation/qsim/Full_Adder.msim.vcd
$comment
	File created using the following command:
		vcd file Full_Adder.msim.vcd -direction
$end
$date
	Mon Nov 28 13:54:33 2022
$end
$version
	ModelSim Version 2020.1
$end
$timescale
	1ps
$end

$scope module Full_Adder_vlg_vec_tst $end
$var reg 1 ! A $end
$var reg 1 " B $end
$var reg 1 # Ci $end
$var wire 1 $ Carry $end
$var wire 1 % Sum $end

$scope module i1 $end
$var wire 1 & gnd $end
$var wire 1 ' vcc $end
$var wire 1 ( unknown $end
$var tri1 1 ) devclrn $end
$var tri1 1 * devpor $end
$var tri1 1 + devoe $end
$var wire 1 , Sum~output_o $end
$var wire 1 - Carry~output_o $end
$var wire 1 . A~input_o $end
$var wire 1 / B~input_o $end
$var wire 1 0 Ci~input_o $end
$var wire 1 1 XOR2~0_combout $end
$var wire 1 2 OR2_2~0_combout $end
$upscope $end
$upscope $end
$enddefinitions $end
#0
$dumpvars
0!
1"
0#
0$
1%
0&
1'
x(
1)
1*
1+
1,
0-
0.
1/
00
11
02
$end
#10000
1!
1.
12
01
0,
1-
1$
0%
#15000
0"
0/
02
11
1,
0-
0$
1%
#20000
1#
10
12
01
0,
1-
1$
0%
#25000
1"
0#
1/
00
#30000
0"
0/
02
11
1,
0-
0$
1%
#35000
0!
1#
0.
10
#40000
1"
1/
12
01
0,
1-
1$
0%
#45000
1!
0#
0"
1.
00
0/
02
11
1,
0-
0$
1%
#55000
0!
1#
1"
0.
10
1/
12
01
0,
1-
1$
0%
#60000
1!
1.
11
1,
1%
#65000
0!
0.
01
0,
0%
#70000
0"
1!
0/
1.
#75000
0#
1"
0!
00
1/
0.
02
11
1,
0-
0$
1%
#80000
1#
10
12
01
0,
1-
1$
0%
#85000
0"
0#
0/
00
02
0-
0$
#90000
1"
1/
11
1,
1%
#95000
1#
10
12
01
0,
1-
1$
0%
#100000
1!
1.
11
1,
1%
#110000
0"
0/
01
0,
0%
#115000
0#
1"
00
1/
#120000
0!
0"
0.
0/
02
0-
0$
#125000
1#
1"
10
1/
12
1-
1$
#130000
1!
1.
11
1,
1%
#135000
0!
0.
01
0,
0%
#140000
0"
0/
02
11
1,
0-
0$
1%
#145000
1!
1"
1.
1/
12
1-
1$
#150000
0!
0"
0.
0/
02
0-
0$
#155000
1!
1.
12
01
0,
1-
1$
0%
#160000
0#
0!
00
0.
02
0-
0$
#165000
1#
10
11
1,
1%
#170000
1!
1.
12
01
0,
1-
1$
0%
#175000
0#
00
02
11
1,
0-
0$
1%
#180000
1"
1#
1/
10
12
1-
1$
#185000
0#
00
01
0,
0%
#195000
0"
1#
0/
10
#200000
0#
00
02
11
1,
0-
0$
1%
#205000
1"
1/
12
01
0,
1-
1$
0%
#210000
0!
0.
02
11
1,
0-
0$
1%
#225000
1#
0"
10
0/
#230000
0#
1"
00
1/
#235000
0"
0/
01
0,
0%
#240000
1!
1#
1"
1.
10
1/
12
11
1,
1-
1$
1%
#245000
0#
00
01
0,
0%
#250000
1#
10
11
1,
1%
#255000
0"
0#
0/
00
02
0-
0$
#260000
0!
1#
0.
10
#265000
1"
0#
1/
00
#270000
0"
1#
0/
10
#275000
1!
1"
1.
1/
12
1-
1$
#280000
0"
0/
01
0,
0%
#285000
0#
1"
00
1/
#290000
1#
0"
10
0/
#295000
0#
00
02
11
1,
0-
0$
1%
#300000
0!
1#
0.
10
#305000
1!
1.
12
01
0,
1-
1$
0%
#310000
1"
0#
1/
00
#315000
0!
1#
0.
10
#320000
0"
0#
0/
00
02
0-
0$
#325000
1#
10
11
1,
1%
#330000
1!
1"
0#
1.
1/
00
12
01
0,
1-
1$
0%
#335000
0!
0"
1#
0.
0/
10
02
11
1,
0-
0$
1%
#345000
1!
0#
1.
00
#350000
1"
0!
1/
0.
#355000
0"
1!
0/
1.
#365000
1#
1"
10
1/
12
1-
1$
#370000
0"
0/
01
0,
0%
#375000
0!
1"
0.
1/
#380000
0#
0"
00
0/
02
0-
0$
#385000
1#
10
11
1,
1%
#390000
0#
00
01
0,
0%
#395000
1#
10
11
1,
1%
#405000
1!
1.
12
01
0,
1-
1$
0%
#410000
1"
0!
1/
0.
#415000
0"
1!
0/
1.
#420000
0#
0!
00
0.
02
0-
0$
#425000
1!
1.
11
1,
1%
#430000
1"
1#
1/
10
12
1-
1$
#440000
0"
0#
0/
00
02
0-
0$
#450000
1#
10
12
01
0,
1-
1$
0%
#455000
1"
0#
1/
00
#460000
0!
0.
02
11
1,
0-
0$
1%
#465000
0"
0/
01
0,
0%
#470000
1!
1.
11
1,
1%
#475000
1#
0!
10
0.
#480000
1!
1.
12
01
0,
1-
1$
0%
#485000
1"
0#
0!
1/
00
0.
02
11
1,
0-
0$
1%
#490000
1#
10
12
01
0,
1-
1$
0%
#495000
0"
0/
02
11
1,
0-
0$
1%
#500000
1!
0#
1.
00
#505000
1#
10
12
01
0,
1-
1$
0%
#510000
1"
0!
0#
1/
0.
00
02
11
1,
0-
0$
1%
#515000
0"
1!
1#
0/
1.
10
12
01
0,
1-
1$
0%
#520000
0!
0.
02
11
1,
0-
0$
1%
#525000
0#
1!
00
1.
#530000
1#
10
12
01
0,
1-
1$
0%
#535000
0#
00
02
11
1,
0-
0$
1%
#540000
1"
0!
1/
0.
#545000
1!
1.
12
01
0,
1-
1$
0%
#555000
0"
0/
02
11
1,
0-
0$
1%
#560000
1#
0!
1"
10
0.
1/
12
01
0,
1-
1$
0%
#565000
0#
00
02
11
1,
0-
0$
1%
#570000
0"
0/
01
0,
0%
#575000
1!
1"
1.
1/
12
1-
1$
#580000
1#
0!
10
0.
#585000
0#
1!
00
1.
#590000
0"
1#
0!
0/
10
0.
02
11
1,
0-
0$
1%
#600000
1"
1!
1/
1.
12
1-
1$
#605000
0#
0!
00
0.
02
0-
0$
#610000
1#
1!
10
1.
12
1-
1$
#615000
0!
0.
01
0,
0%
#620000
0"
1!
0/
1.
#625000
0!
0.
02
11
1,
0-
0$
1%
#635000
1!
1.
12
01
0,
1-
1$
0%
#640000
0#
0!
00
0.
02
0-
0$
#650000
1"
1/
11
1,
1%
#655000
1#
1!
10
1.
12
1-
1$
#665000
0"
0/
01
0,
0%
#670000
0#
1"
00
1/
#675000
1#
10
11
1,
1%
#680000
0!
0"
0.
0/
02
0-
0$
#685000
1!
1"
1.
1/
12
1-
1$
#690000
0#
0!
0"
00
0.
0/
02
01
0,
0-
0$
0%
#695000
1#
1!
1"
10
1.
1/
12
11
1,
1-
1$
1%
#700000
0!
0.
01
0,
0%
#705000
0#
1!
00
1.
#710000
0!
0.
02
11
1,
0-
0$
1%
#715000
1#
1!
10
1.
12
1-
1$
#720000
0"
0#
0!
0/
00
0.
02
01
0,
0-
0$
0%
#725000
1"
1/
11
1,
1%
#730000
0"
0/
01
0,
0%
#735000
1!
1.
11
1,
1%
#740000
1"
0!
1/
0.
#745000
1#
0"
10
0/
#750000
1!
1.
12
01
0,
1-
1$
0%
#755000
0#
00
02
11
1,
0-
0$
1%
#760000
1"
0!
1#
1/
0.
10
12
01
0,
1-
1$
0%
#765000
0#
00
02
11
1,
0-
0$
1%
#770000
0"
1!
1#
0/
1.
10
12
01
0,
1-
1$
0%
#775000
0#
00
02
11
1,
0-
0$
1%
#780000
1"
0!
1#
1/
0.
10
12
01
0,
1-
1$
0%
#785000
0"
1!
0/
1.
#790000
0#
00
02
11
1,
0-
0$
1%
#795000
1"
1#
1/
10
12
1-
1$
#805000
0!
0.
01
0,
0%
#810000
0#
1!
00
1.
#815000
1#
10
11
1,
1%
#825000
0"
0#
0/
00
02
0-
0$
#835000
0!
1#
0.
10
#840000
1"
1!
0#
1/
1.
00
12
01
0,
1-
1$
0%
#845000
0"
0/
02
11
1,
0-
0$
1%
#850000
0!
0.
01
0,
0%
#855000
1"
1/
11
1,
1%
#860000
0"
0/
01
0,
0%
#865000
1"
1/
11
1,
1%
#870000
1#
1!
0"
10
1.
0/
12
01
0,
1-
1$
0%
#875000
0#
00
02
11
1,
0-
0$
1%
#885000
1#
10
12
01
0,
1-
1$
0%
#890000
1"
1/
11
1,
1%
#895000
0!
0"
0.
0/
02
0-
0$
#900000
0#
1!
00
1.
#905000
1"
1#
1/
10
12
1-
1$
#910000
0"
0/
01
0,
0%
#915000
0!
0#
0.
00
02
0-
0$
#925000
1"
1!
1#
1/
1.
10
12
11
1,
1-
1$
1%
#930000
0"
0!
0#
0/
0.
00
02
01
0,
0-
0$
0%
#935000
1"
1!
1/
1.
12
1-
1$
#940000
1#
0!
10
0.
#945000
0"
0#
1!
0/
00
1.
02
11
1,
0-
0$
1%
#950000
1"
1#
1/
10
12
1-
1$
#960000
0"
0#
0/
00
02
0-
0$
#965000
0!
1#
0.
10
#975000
1!
1.
12
01
0,
1-
1$
0%
#980000
1"
1/
11
1,
1%
#985000
0!
0.
01
0,
0%
#990000
0"
0/
02
11
1,
0-
0$
1%
#995000
1"
1/
12
01
0,
1-
1$
0%
