1ª Matrícula/1º Semestre/Introdução aos Sistemas Digitais/Testes/Quartus Prime Lite/Half_Subtractor/simulation/qsim/Half_Subtractor.msim.vcd
$comment
	File created using the following command:
		vcd file Half_Subtractor.msim.vcd -direction
$end
$date
	Tue Nov 29 21:58:07 2022
$end
$version
	ModelSim Version 2020.1
$end
$timescale
	1ps
$end

$scope module Half_Subtractor_vlg_vec_tst $end
$var reg 1 ! A $end
$var reg 1 " B $end
$var wire 1 # B0 $end
$var wire 1 $ D $end

$scope module i1 $end
$var wire 1 % gnd $end
$var wire 1 & vcc $end
$var wire 1 ' unknown $end
$var tri1 1 ( devclrn $end
$var tri1 1 ) devpor $end
$var tri1 1 * devoe $end
$var wire 1 + D~output_o $end
$var wire 1 , B0~output_o $end
$var wire 1 - A~input_o $end
$var wire 1 . B~input_o $end
$var wire 1 / XOR_1~combout $end
$var wire 1 0 AND2_1~combout $end
$upscope $end
$upscope $end
$enddefinitions $end
#0
$dumpvars
1!
0"
0#
1$
0%
1&
x'
1(
1)
1*
1+
0,
1-
0.
1/
00
$end
#5000
0!
0-
0/
0+
0$
#10000
1!
1-
1/
1+
1$
#15000
1"
1.
0/
0+
0$
#25000
0"
0.
1/
1+
1$
#40000
1"
1.
0/
0+
0$
#45000
0!
0-
10
1/
1+
1,
1#
1$
#70000
1!
1-
00
0/
0+
0,
0#
0$
#85000
0"
0!
0.
0-
#90000
1"
1.
10
1/
1+
1,
1#
1$
#95000
0"
0.
00
0/
0+
0,
0#
0$
#100000
1!
1-
1/
1+
1$
#105000
0!
0-
0/
0+
0$
#115000
1!
1-
1/
1+
1$
#120000
1"
0!
1.
0-
10
1,
1#
#130000
0"
0.
00
0/
0+
0,
0#
0$
#135000
1!
1-
1/
1+
1$
#145000
1"
1.
0/
0+
0$
#150000
0!
0"
0-
0.
#155000
1!
1-
1/
1+
1$
#160000
1"
1.
0/
0+
0$
#165000
0!
0"
0-
0.
#170000
1"
1.
10
1/
1+
1,
1#
1$
#175000
0"
0.
00
0/
0+
0,
0#
0$
#180000
1!
1"
1-
1.
#185000
0!
0"
0-
0.
#190000
1!
1-
1/
1+
1$
#195000
1"
0!
1.
0-
10
1,
1#
#200000
1!
1-
00
0/
0+
0,
0#
0$
#210000
0"
0.
1/
1+
1$
#215000
0!
1"
0-
1.
10
1,
1#
#220000
1!
1-
00
0/
0+
0,
0#
0$
#225000
0"
0!
0.
0-
#230000
1"
1.
10
1/
1+
1,
1#
1$
#235000
1!
0"
1-
0.
00
0,
0#
#240000
1"
1.
0/
0+
0$
#245000
0!
0"
0-
0.
#255000
1!
1-
1/
1+
1$
#260000
1"
1.
0/
0+
0$
#265000
0!
0-
10
1/
1+
1,
1#
1$
#270000
0"
1!
0.
1-
00
0,
0#
#275000
0!
0-
0/
0+
0$
#285000
1"
1.
10
1/
1+
1,
1#
1$
#290000
1!
1-
00
0/
0+
0,
0#
0$
#295000
0"
0.
1/
1+
1$
#300000
1"
1.
0/
0+
0$
#305000
0!
0-
10
1/
1+
1,
1#
1$
#315000
0"
0.
00
0/
0+
0,
0#
0$
#320000
1!
1-
1/
1+
1$
#330000
1"
1.
0/
0+
0$
#340000
0!
0"
0-
0.
#345000
1!
1-
1/
1+
1$
#350000
0!
0-
0/
0+
0$
#355000
1"
1!
1.
1-
#360000
0"
0.
1/
1+
1$
#370000
0!
0-
0/
0+
0$
#375000
1"
1.
10
1/
1+
1,
1#
1$
#380000
0"
0.
00
0/
0+
0,
0#
0$
#385000
1!
1-
1/
1+
1$
#390000
1"
0!
1.
0-
10
1,
1#
#395000
0"
1!
0.
1-
00
0,
0#
#400000
1"
0!
1.
0-
10
1,
1#
#410000
0"
0.
00
0/
0+
0,
0#
0$
#420000
1"
1.
10
1/
1+
1,
1#
1$
#425000
0"
0.
00
0/
0+
0,
0#
0$
#430000
1"
1.
10
1/
1+
1,
1#
1$
#435000
0"
0.
00
0/
0+
0,
0#
0$
#440000
1"
1.
10
1/
1+
1,
1#
1$
#445000
0"
0.
00
0/
0+
0,
0#
0$
#450000
1!
1-
1/
1+
1$
#455000
0!
0-
0/
0+
0$
#460000
1"
1.
10
1/
1+
1,
1#
1$
#465000
1!
0"
1-
0.
00
0,
0#
#475000
0!
1"
0-
1.
10
1,
1#
#480000
1!
1-
00
0/
0+
0,
0#
0$
#485000
0"
0!
0.
0-
#490000
1"
1!
1.
1-
#495000
0"
0!
0.
0-
#505000
1"
1!
1.
1-
#515000
0"
0!
0.
0-
#520000
1!
1-
1/
1+
1$
#535000
0!
0-
0/
0+
0$
#550000
1"
1!
1.
1-
#555000
0"
0.
1/
1+
1$
#560000
1"
1.
0/
0+
0$
#565000
0!
0"
0-
0.
#570000
1!
1"
1-
1.
#575000
0!
0"
0-
0.
#580000
1!
1"
1-
1.
#585000
0!
0"
0-
0.
#605000
1"
1.
10
1/
1+
1,
1#
1$
#610000
1!
0"
1-
0.
00
0,
0#
#615000
0!
1"
0-
1.
10
1,
1#
#620000
1!
0"
1-
0.
00
0,
0#
#625000
1"
1.
0/
0+
0$
#630000
0!
0"
0-
0.
#635000
1"
1.
10
1/
1+
1,
1#
1$
#640000
1!
0"
1-
0.
00
0,
0#
#645000
0!
1"
0-
1.
10
1,
1#
#650000
1!
0"
1-
0.
00
0,
0#
#655000
0!
1"
0-
1.
10
1,
1#
#660000
1!
1-
00
0/
0+
0,
0#
0$
#665000
0"
0!
0.
0-
#670000
1!
1-
1/
1+
1$
#675000
0!
0-
0/
0+
0$
#680000
1!
1-
1/
1+
1$
#700000
1"
0!
1.
0-
10
1,
1#
#705000
0"
0.
00
0/
0+
0,
0#
0$
#725000
1!
1"
1-
1.
#730000
0"
0.
1/
1+
1$
#735000
0!
0-
0/
0+
0$
#740000
1"
1.
10
1/
1+
1,
1#
1$
#755000
0"
0.
00
0/
0+
0,
0#
0$
#760000
1!
1-
1/
1+
1$
#765000
0!
0-
0/
0+
0$
#770000
1"
1.
10
1/
1+
1,
1#
1$
#780000
0"
0.
00
0/
0+
0,
0#
0$
#785000
1!
1-
1/
1+
1$
#790000
1"
1.
0/
0+
0$
#795000
0"
0.
1/
1+
1$
#805000
1"
1.
0/
0+
0$
#810000
0!
0-
10
1/
1+
1,
1#
1$
#815000
0"
0.
00
0/
0+
0,
0#
0$
#820000
1!
1-
1/
1+
1$
#830000
1"
0!
1.
0-
10
1,
1#
#835000
1!
1-
00
0/
0+
0,
0#
0$
#840000
0"
0!
0.
0-
#845000
1!
1-
1/
1+
1$
#850000
0!
0-
0/
0+
0$
#855000
1"
1.
10
1/
1+
1,
1#
1$
#860000
0"
0.
00
0/
0+
0,
0#
0$
#865000
1"
1.
10
1/
1+
1,
1#
1$
#875000
1!
0"
1-
0.
00
0,
0#
#895000
0!
1"
0-
1.
10
1,
1#
#905000
1!
0"
1-
0.
00
0,
0#
#910000
0!
0-
0/
0+
0$
#920000
1"
1!
1.
1-
#925000
0!
0-
10
1/
1+
1,
1#
1$
#930000
0"
1!
0.
1-
00
0,
0#
#935000
0!
0-
0/
0+
0$
#940000
1"
1.
10
1/
1+
1,
1#
1$
#945000
1!
1-
00
0/
0+
0,
0#
0$
#950000
0"
0.
1/
1+
1$
#970000
1"
1.
0/
0+
0$
#980000
0"
0.
1/
1+
1$
#985000
0!
0-
0/
0+
0$
#995000
1"
1.
10
1/
1+
1,
1#
1$
