1ª Matrícula/1º Semestre/Introdução aos Sistemas Digitais/Testes/112726/Projeto/simulation/qsim/MEF.msim.vcd
$comment
	File created using the following command:
		vcd file MEF.msim.vcd -direction
$end
$date
	Wed Jan 04 10:16:28 2023
$end
$version
	ModelSim Version 2020.1
$end
$timescale
	1ps
$end

$scope module MEF_vlg_vec_tst $end
$var reg 1 ! CLK $end
$var reg 1 " RESET $end
$var reg 1 # X $end
$var wire 1 $ Q [1] $end
$var wire 1 % Q [0] $end

$scope module i1 $end
$var wire 1 & gnd $end
$var wire 1 ' vcc $end
$var wire 1 ( unknown $end
$var tri1 1 ) devclrn $end
$var tri1 1 * devpor $end
$var tri1 1 + devoe $end
$var wire 1 , Q[1]~output_o $end
$var wire 1 - Q[0]~output_o $end
$var wire 1 . CLK~input_o $end
$var wire 1 / RESET~input_o $end
$var wire 1 0 inst19~0_combout $end
$var wire 1 1 X~input_o $end
$var wire 1 2 inst18~1_combout $end
$var wire 1 3 inst9~q $end
$var wire 1 4 inst18~0_combout $end
$var wire 1 5 inst~q $end
$upscope $end
$upscope $end
$enddefinitions $end
#0
$dumpvars
0!
1"
1#
0%
0$
0&
1'
x(
1)
1*
1+
0,
0-
0.
1/
10
11
12
03
04
05
$end
#5000
1!
0#
01
1.
02
13
1-
1%
14
#10000
1#
11
12
#15000
0"
0!
0#
0/
01
0.
04
00
#25000
1"
1!
1#
1/
11
1.
14
10
03
0-
0%
04
#30000
0!
0.
#35000
0#
1!
01
1.
02
13
1-
1%
14
#40000
0"
1#
0!
0/
11
0.
12
04
00
#45000
1"
0#
1!
1/
01
1.
02
14
10
03
0-
0%
04
#50000
1#
0!
11
0.
12
#55000
0"
0#
0/
01
00
#60000
1#
11
#75000
1!
1"
1/
1.
10
#80000
0!
0"
0/
0.
00
#85000
0#
1"
01
1/
02
10
#95000
1!
1#
0"
11
0/
1.
12
00
#100000
0!
0.
#105000
1"
1!
1/
1.
10
#110000
0#
0"
0!
01
0/
0.
00
#115000
1#
11
#125000
1"
1/
10
#130000
1!
0"
0/
1.
00
13
1-
1%
#135000
0#
0!
01
0.
#140000
1!
1.
03
0-
0%
#145000
1"
1/
02
10
#150000
1#
0!
11
0.
12
#155000
1!
1.
13
1-
1%
14
#160000
0!
0.
#165000
0"
1!
0/
1.
04
00
15
1,
1$
#170000
0#
01
#175000
1#
11
#180000
1"
0#
1/
01
02
14
#185000
0!
1#
11
0.
12
#190000
0"
0/
04
#195000
1!
1.
05
03
0-
0,
0$
0%
#205000
0#
01
#210000
1"
0!
1/
0.
02
10
#220000
0"
1!
0/
1.
12
00
#225000
1#
1"
11
1/
10
#230000
0!
0"
0/
0.
00
#235000
0#
01
#240000
1!
1#
11
1.
#245000
1"
0!
1/
0.
10
#250000
0#
1!
01
1.
02
13
1-
1%
14
#255000
0!
0.
#260000
1#
1!
11
1.
12
#265000
0#
01
02
#270000
0"
1#
0/
11
12
04
00
#275000
1"
1/
14
10
#280000
0!
0"
0/
0.
04
00
#285000
1"
1/
14
10
#290000
0"
0/
04
00
#295000
0#
1"
01
1/
02
14
10
#300000
1!
1#
0"
11
0/
1.
12
04
00
#305000
1"
1/
14
10
#310000
0"
0/
04
00
#315000
0!
1"
1/
0.
14
10
#330000
0"
0/
04
00
#335000
0#
1"
01
1/
02
14
10
#340000
1!
1#
11
1.
12
#350000
0#
01
02
#355000
0"
0!
1#
0/
11
0.
12
04
00
#360000
0#
01
#365000
1#
11
#370000
0#
01
#375000
1!
1#
11
1.
03
0-
0%
#380000
1"
1/
10
#385000
0!
0#
0"
01
0/
0.
00
#390000
1!
1#
1"
11
1/
1.
10
#395000
0!
0#
0"
01
0/
0.
00
#400000
1!
1#
11
1.
#405000
1"
0!
1/
0.
10
#415000
0#
1!
01
1.
02
13
1-
1%
14
#420000
1#
0!
11
0.
12
#425000
0"
0#
1!
0/
01
1.
04
00
15
1,
1$
#430000
1"
0!
1/
0.
02
14
#435000
0"
1!
0/
1.
12
04
#440000
1"
0!
1/
0.
02
14
#445000
1#
0"
1!
11
0/
1.
12
04
#450000
1"
1/
14
#455000
0#
0!
01
0.
02
#460000
0"
1!
0/
1.
12
04
#470000
1"
0!
1/
0.
02
14
#480000
1#
1!
11
1.
12
#485000
0!
0.
#490000
1!
1.
03
0-
0%
04
#495000
0#
01
02
#500000
0"
0!
1#
0/
11
0.
12
#505000
0#
01
#510000
1"
1!
1/
1.
02
05
0,
0$
10
#515000
1#
0!
11
0.
12
#520000
0"
1!
0/
1.
00
13
1-
1%
#525000
0!
0.
#535000
0#
1"
01
1/
02
14
10
#540000
1#
0"
11
0/
12
04
00
#545000
0#
01
#555000
1!
1"
1/
1.
02
14
10
03
0-
0%
04
#560000
0"
0/
12
00
#565000
0!
1"
1/
0.
02
10
#570000
1#
1!
11
1.
12
#575000
0#
01
02
#580000
0"
0/
12
00
#585000
0!
1"
1/
0.
02
10
#590000
1#
0"
11
0/
12
00
#595000
1!
1"
1/
1.
10
#600000
0#
0!
01
0.
02
#605000
1#
1!
11
1.
12
#610000
0#
01
02
#620000
0"
0!
0/
0.
12
00
#625000
1"
1!
1/
1.
02
10
#630000
0"
0!
0/
0.
12
00
#635000
1#
1"
1!
11
1/
1.
10
#640000
0#
0"
01
0/
00
#645000
0!
1#
1"
11
1/
0.
10
#650000
0#
0"
01
0/
00
#655000
1!
1"
1/
1.
02
10
#665000
0!
0"
0/
0.
12
00
#670000
1#
1"
11
1/
10
#680000
0"
0/
00
#685000
0#
01
#690000
1!
1.
#695000
1"
0!
1/
0.
02
10
#700000
1#
0"
11
0/
12
00
#705000
1!
0#
01
1.
#710000
0!
0.
#715000
1"
1!
1/
1.
02
10
#720000
1#
0"
0!
11
0/
0.
12
00
#725000
0#
1"
01
1/
02
10
#730000
1#
11
12
#735000
1!
0"
0#
0/
01
1.
00
13
1-
1%
#740000
0!
1"
1/
0.
02
14
10
#745000
1!
1.
#750000
1#
11
12
#755000
0"
0!
0#
0/
01
0.
04
00
#760000
1#
11
#765000
1"
1/
14
10
#770000
0#
0"
01
0/
04
00
#775000
1#
1"
11
1/
14
10
#780000
0"
0/
04
00
#785000
1!
1"
1/
1.
14
10
03
0-
0%
04
#790000
0"
0/
00
#795000
0!
1"
1/
0.
10
#800000
1!
1.
13
1-
1%
14
#805000
0!
0.
#810000
0#
0"
01
0/
04
00
#815000
1#
11
#820000
1!
1.
03
0-
0%
#825000
0#
01
#830000
1#
11
#840000
1"
0#
1/
01
02
10
#855000
0"
0/
12
00
#860000
1"
1/
02
10
#870000
0!
1#
11
0.
12
#875000
0"
0/
00
#880000
0#
1"
01
1/
02
10
#885000
1#
0"
11
0/
12
00
#890000
0#
1"
01
1/
02
10
#895000
1#
11
12
#905000
0#
01
02
#910000
1!
1#
11
1.
12
#915000
0"
0!
0/
0.
00
#920000
1"
1!
1/
1.
10
#930000
0#
0!
01
0.
02
#935000
0"
0/
12
00
#940000
1!
1"
1/
1.
02
10
#950000
1#
0"
11
0/
12
00
#955000
0#
01
#965000
0!
0.
#970000
1"
1!
1/
1.
02
10
#980000
1#
0"
0!
11
0/
0.
12
00
#985000
1!
1.
#990000
0#
1"
01
1/
02
10
#995000
0!
1#
0"
11
0/
0.
12
00
