1ª Matrícula/1º Semestre/Introdução aos Sistemas Digitais/Testes/Quartus Prime Lite/Half_Adder/simulation/qsim/Half_Adder.msim.vcd
$comment
	File created using the following command:
		vcd file Half_Adder.msim.vcd -direction
$end
$date
	Mon Nov 28 12:10:02 2022
$end
$version
	ModelSim Version 2020.1
$end
$timescale
	1ps
$end

$scope module Half_Adder_vlg_vec_tst $end
$var reg 1 ! inPort0 $end
$var reg 1 " inPort1 $end
$var wire 1 # Carry $end
$var wire 1 $ Sum $end

$scope module i1 $end
$var wire 1 % gnd $end
$var wire 1 & vcc $end
$var wire 1 ' unknown $end
$var tri1 1 ( devclrn $end
$var tri1 1 ) devpor $end
$var tri1 1 * devoe $end
$var wire 1 + Sum~output_o $end
$var wire 1 , Carry~output_o $end
$var wire 1 - inPort0~input_o $end
$var wire 1 . inPort1~input_o $end
$var wire 1 / XOR_1~combout $end
$var wire 1 0 AND2_1~combout $end
$upscope $end
$upscope $end
$enddefinitions $end
#0
$dumpvars
1!
0"
0#
1$
0%
1&
x'
1(
1)
1*
1+
0,
1-
0.
1/
00
$end
#5000
0!
1"
0-
1.
#10000
1!
1-
10
0/
0+
1,
1#
0$
#15000
0"
0!
0.
0-
00
0,
0#
#20000
1"
1.
1/
1+
1$
#30000
1!
0"
1-
0.
#35000
0!
0-
0/
0+
0$
#45000
1"
1.
1/
1+
1$
#50000
1!
1-
10
0/
0+
1,
1#
0$
#60000
0"
0.
00
1/
1+
0,
0#
1$
#65000
0!
0-
0/
0+
0$
#70000
1!
1-
1/
1+
1$
#75000
0!
0-
0/
0+
0$
#80000
1!
1-
1/
1+
1$
#85000
1"
1.
10
0/
0+
1,
1#
0$
#90000
0!
0"
0-
0.
00
0,
0#
#95000
1!
1-
1/
1+
1$
#105000
0!
0-
0/
0+
0$
#110000
1!
1-
1/
1+
1$
#115000
0!
0-
0/
0+
0$
#125000
1"
1.
1/
1+
1$
#130000
1!
0"
1-
0.
#145000
1"
1.
10
0/
0+
1,
1#
0$
#155000
0!
0-
00
1/
1+
0,
0#
1$
#160000
1!
1-
10
0/
0+
1,
1#
0$
#175000
0!
0-
00
1/
1+
0,
0#
1$
#180000
0"
0.
0/
0+
0$
#185000
1"
1.
1/
1+
1$
#190000
1!
1-
10
0/
0+
1,
1#
0$
#195000
0!
0-
00
1/
1+
0,
0#
1$
#200000
0"
1!
0.
1-
#205000
0!
0-
0/
0+
0$
#210000
1!
1-
1/
1+
1$
#215000
1"
0!
1.
0-
#220000
0"
1!
0.
1-
#225000
1"
1.
10
0/
0+
1,
1#
0$
#245000
0!
0"
0-
0.
00
0,
0#
#250000
1"
1.
1/
1+
1$
#255000
1!
0"
1-
0.
#260000
0!
1"
0-
1.
#265000
0"
0.
0/
0+
0$
#285000
1!
1-
1/
1+
1$
#290000
1"
0!
1.
0-
#295000
0"
0.
0/
0+
0$
#300000
1!
1"
1-
1.
10
1,
1#
#305000
0!
0"
0-
0.
00
0,
0#
#310000
1"
1.
1/
1+
1$
#315000
0"
0.
0/
0+
0$
#325000
1"
1.
1/
1+
1$
#330000
0"
0.
0/
0+
0$
#335000
1"
1.
1/
1+
1$
#340000
1!
1-
10
0/
0+
1,
1#
0$
#345000
0"
0.
00
1/
1+
0,
0#
1$
#365000
0!
0-
0/
0+
0$
#370000
1"
1.
1/
1+
1$
#375000
0"
0.
0/
0+
0$
#380000
1!
1-
1/
1+
1$
#385000
0!
0-
0/
0+
0$
#395000
1!
1-
1/
1+
1$
#405000
0!
0-
0/
0+
0$
#410000
1"
1!
1.
1-
10
1,
1#
#415000
0!
0-
00
1/
1+
0,
0#
1$
#420000
1!
1-
10
0/
0+
1,
1#
0$
#425000
0!
0-
00
1/
1+
0,
0#
1$
#430000
0"
0.
0/
0+
0$
#435000
1!
1-
1/
1+
1$
#440000
1"
0!
1.
0-
#445000
1!
1-
10
0/
0+
1,
1#
0$
#450000
0!
0-
00
1/
1+
0,
0#
1$
#455000
1!
1-
10
0/
0+
1,
1#
0$
#465000
0"
0!
0.
0-
00
0,
0#
#470000
1!
1-
1/
1+
1$
#475000
1"
1.
10
0/
0+
1,
1#
0$
#480000
0!
0-
00
1/
1+
0,
0#
1$
#495000
1!
1-
10
0/
0+
1,
1#
0$
#500000
0"
0.
00
1/
1+
0,
0#
1$
#505000
0!
1"
0-
1.
#510000
0"
0.
0/
0+
0$
#515000
1"
1.
1/
1+
1$
#525000
1!
0"
1-
0.
#530000
1"
1.
10
0/
0+
1,
1#
0$
#540000
0"
0.
00
1/
1+
0,
0#
1$
#545000
0!
0-
0/
0+
0$
#555000
1!
1-
1/
1+
1$
#560000
1"
1.
10
0/
0+
1,
1#
0$
#570000
0"
0.
00
1/
1+
0,
0#
1$
#575000
1"
1.
10
0/
0+
1,
1#
0$
#580000
0"
0.
00
1/
1+
0,
0#
1$
#585000
0!
1"
0-
1.
#590000
1!
1-
10
0/
0+
1,
1#
0$
#595000
0"
0.
00
1/
1+
0,
0#
1$
#600000
1"
1.
10
0/
0+
1,
1#
0$
#605000
0!
0"
0-
0.
00
0,
0#
#615000
1!
1-
1/
1+
1$
#625000
1"
0!
1.
0-
#630000
1!
1-
10
0/
0+
1,
1#
0$
#635000
0!
0-
00
1/
1+
0,
0#
1$
#640000
1!
1-
10
0/
0+
1,
1#
0$
#645000
0"
0.
00
1/
1+
0,
0#
1$
#655000
1"
1.
10
0/
0+
1,
1#
0$
#665000
0"
0.
00
1/
1+
0,
0#
1$
#670000
0!
0-
0/
0+
0$
#685000
1"
1!
1.
1-
10
1,
1#
#690000
0"
0!
0.
0-
00
0,
0#
#700000
1!
1-
1/
1+
1$
#705000
0!
0-
0/
0+
0$
#710000
1"
1.
1/
1+
1$
#715000
1!
1-
10
0/
0+
1,
1#
0$
#725000
0!
0-
00
1/
1+
0,
0#
1$
#730000
0"
0.
0/
0+
0$
#735000
1!
1-
1/
1+
1$
#740000
0!
0-
0/
0+
0$
#750000
1"
1.
1/
1+
1$
#755000
0"
0.
0/
0+
0$
#760000
1"
1.
1/
1+
1$
#765000
1!
0"
1-
0.
#775000
1"
1.
10
0/
0+
1,
1#
0$
#780000
0"
0.
00
1/
1+
0,
0#
1$
#785000
0!
0-
0/
0+
0$
#790000
1!
1-
1/
1+
1$
#795000
0!
0-
0/
0+
0$
#800000
1"
1!
1.
1-
10
1,
1#
#805000
0"
0.
00
1/
1+
0,
0#
1$
#810000
0!
0-
0/
0+
0$
#815000
1!
1-
1/
1+
1$
#820000
1"
1.
10
0/
0+
1,
1#
0$
#825000
0!
0"
0-
0.
00
0,
0#
#835000
1!
1"
1-
1.
10
1,
1#
#845000
0!
0-
00
1/
1+
0,
0#
1$
#850000
0"
0.
0/
0+
0$
#855000
1"
1.
1/
1+
1$
#860000
1!
1-
10
0/
0+
1,
1#
0$
#865000
0!
0-
00
1/
1+
0,
0#
1$
#885000
0"
0.
0/
0+
0$
#890000
1!
1"
1-
1.
10
1,
1#
#895000
0!
0"
0-
0.
00
0,
0#
#900000
1!
1-
1/
1+
1$
#905000
1"
0!
1.
0-
#910000
0"
1!
0.
1-
#915000
0!
0-
0/
0+
0$
#920000
1"
1!
1.
1-
10
1,
1#
#930000
0"
0.
00
1/
1+
0,
0#
1$
#935000
1"
1.
10
0/
0+
1,
1#
0$
#940000
0"
0.
00
1/
1+
0,
0#
1$
#945000
0!
1"
0-
1.
#955000
1!
0"
1-
0.
#960000
0!
0-
0/
0+
0$
#975000
1"
1!
1.
1-
10
1,
1#
#980000
0"
0.
00
1/
1+
0,
0#
1$
#990000
1"
1.
10
0/
0+
1,
1#
0$
#995000
0"
0.
00
1/
1+
0,
0#
1$
